digraph "include/machine/cgascr.h"
{
  bgcolor="transparent";
  edge [fontname="Helvetica",fontsize="10",labelfontname="Helvetica",labelfontsize="10"];
  node [fontname="Helvetica",fontsize="10",shape=record];
  Node1 [label="include/machine/cgascr.h",height=0.2,width=0.4,color="black", fillcolor="grey75", style="filled" fontcolor="black"];
  Node1 -> Node2 [dir="back",color="midnightblue",fontsize="10",style="solid",fontname="Helvetica"];
  Node2 [label="include/device/cgastr.h",height=0.2,width=0.4,color="black",URL="$cgastr_8h.html"];
  Node2 -> Node3 [dir="back",color="midnightblue",fontsize="10",style="solid",fontname="Helvetica"];
  Node3 [label="include/object/kout.h",height=0.2,width=0.4,color="black",URL="$kout_8h.html",tooltip="alles notwendige zum nutzen der in main.cc deklarierten globalen Variable kout "];
  Node3 -> Node4 [dir="back",color="midnightblue",fontsize="10",style="solid",fontname="Helvetica"];
  Node4 [label="src/common/panic.cc",height=0.2,width=0.4,color="black",URL="$panic_8cc.html"];
  Node3 -> Node5 [dir="back",color="midnightblue",fontsize="10",style="solid",fontname="Helvetica"];
  Node5 [label="src/machine/exceptions.cc",height=0.2,width=0.4,color="black",URL="$exceptions_8cc.html",tooltip="Interrupt-Behandlungsfunktionen. "];
  Node3 -> Node6 [dir="back",color="midnightblue",fontsize="10",style="solid",fontname="Helvetica"];
  Node6 [label="src/user/analyse.cc",height=0.2,width=0.4,color="black",URL="$analyse_8cc.html"];
  Node3 -> Node7 [dir="back",color="midnightblue",fontsize="10",style="solid",fontname="Helvetica"];
  Node7 [label="src/user/jobManager.cc",height=0.2,width=0.4,color="black",URL="$jobManager_8cc.html"];
  Node3 -> Node8 [dir="back",color="midnightblue",fontsize="10",style="solid",fontname="Helvetica"];
  Node8 [label="src/user/parser.cc",height=0.2,width=0.4,color="black",URL="$parser_8cc.html"];
  Node3 -> Node9 [dir="back",color="midnightblue",fontsize="10",style="solid",fontname="Helvetica"];
  Node9 [label="src/user/task2.cc",height=0.2,width=0.4,color="black",URL="$task2_8cc.html"];
  Node3 -> Node10 [dir="back",color="midnightblue",fontsize="10",style="solid",fontname="Helvetica"];
  Node10 [label="src/user/task3A.cc",height=0.2,width=0.4,color="black",URL="$task3A_8cc.html"];
  Node3 -> Node11 [dir="back",color="midnightblue",fontsize="10",style="solid",fontname="Helvetica"];
  Node11 [label="src/user/task3B.cc",height=0.2,width=0.4,color="black",URL="$task3B_8cc.html"];
  Node3 -> Node12 [dir="back",color="midnightblue",fontsize="10",style="solid",fontname="Helvetica"];
  Node12 [label="src/user/task4.cc",height=0.2,width=0.4,color="black",URL="$task4_8cc.html"];
  Node3 -> Node13 [dir="back",color="midnightblue",fontsize="10",style="solid",fontname="Helvetica"];
  Node13 [label="src/user/task5.cc",height=0.2,width=0.4,color="black",URL="$task5_8cc.html"];
  Node2 -> Node14 [dir="back",color="midnightblue",fontsize="10",style="solid",fontname="Helvetica"];
  Node14 [label="src/device/cgastr.cc",height=0.2,width=0.4,color="black",URL="$cgastr_8cc.html",tooltip="CGA_Stream ist hier implementiert "];
  Node2 -> Node15 [dir="back",color="midnightblue",fontsize="10",style="solid",fontname="Helvetica"];
  Node15 [label="src/main.cc",height=0.2,width=0.4,color="black",URL="$main_8cc.html",tooltip="Grunddatei von OOStuBS. "];
  Node2 -> Node16 [dir="back",color="midnightblue",fontsize="10",style="solid",fontname="Helvetica"];
  Node16 [label="src/user/task1.cc",height=0.2,width=0.4,color="black",URL="$task1_8cc.html"];
  Node1 -> Node17 [dir="back",color="midnightblue",fontsize="10",style="solid",fontname="Helvetica"];
  Node17 [label="src/machine/cgascr.cc",height=0.2,width=0.4,color="black",URL="$cgascr_8cc.html"];
}
