digraph "CGA_Screen"
{
  bgcolor="transparent";
  edge [fontname="Helvetica",fontsize="10",labelfontname="Helvetica",labelfontsize="10"];
  node [fontname="Helvetica",fontsize="10",shape=record];
  Node1 [label="CGA_Screen",height=0.2,width=0.4,color="black", fillcolor="grey75", style="filled" fontcolor="black"];
  Node2 -> Node1 [dir="back",color="darkorchid3",fontsize="10",style="dashed",label=" data_port\nindex_port" ,fontname="Helvetica"];
  Node2 [label="IO_Port",height=0.2,width=0.4,color="black",URL="$classIO__Port.html",tooltip="Accessor for I/O-Space. "];
  Node3 -> Node1 [dir="back",color="darkorchid3",fontsize="10",style="dashed",label=" screen" ,fontname="Helvetica"];
  Node3 [label="CGA_Screen::ScreenChar",height=0.2,width=0.4,color="black",URL="$structCGA__Screen_1_1ScreenChar.html"];
}
