digraph "Semaphore::signal"
{
  bgcolor="transparent";
  edge [fontname="Helvetica",fontsize="10",labelfontname="Helvetica",labelfontsize="10"];
  node [fontname="Helvetica",fontsize="10",shape=record];
  rankdir="LR";
  Node1 [label="Semaphore::signal",height=0.2,width=0.4,color="black", fillcolor="grey75", style="filled" fontcolor="black"];
  Node1 -> Node2 [color="midnightblue",fontsize="10",style="solid",fontname="Helvetica"];
  Node2 [label="Semaphore::v",height=0.2,width=0.4,color="black",URL="$classSemaphore.html#af241cab5feb1a86bba81a1d6a424aac7",tooltip="Increase value or wake up blocked thread. "];
}
