digraph "Parser::feed"
{
  bgcolor="transparent";
  edge [fontname="Helvetica",fontsize="10",labelfontname="Helvetica",labelfontsize="10"];
  node [fontname="Helvetica",fontsize="10",shape=record];
  rankdir="LR";
  Node1 [label="Parser::feed",height=0.2,width=0.4,color="black", fillcolor="grey75", style="filled" fontcolor="black"];
  Node1 -> Node2 [dir="back",color="midnightblue",fontsize="10",style="solid",fontname="Helvetica"];
  Node2 [label="Task5::action",height=0.2,width=0.4,color="black",URL="$classTask5.html#a9348e9a0fadd86b7e76c66d66521fe39",tooltip="Functionality of the fifth test application. "];
}
