digraph "Key::ctrl_right"
{
  bgcolor="transparent";
  edge [fontname="Helvetica",fontsize="10",labelfontname="Helvetica",labelfontsize="10"];
  node [fontname="Helvetica",fontsize="10",shape=record];
  rankdir="LR";
  Node1 [label="Key::ctrl_right",height=0.2,width=0.4,color="black", fillcolor="grey75", style="filled" fontcolor="black"];
  Node1 -> Node2 [dir="back",color="midnightblue",fontsize="10",style="solid",fontname="Helvetica"];
  Node2 [label="Keyboard_Controller\l::key_decoded",height=0.2,width=0.4,color="black",URL="$classKeyboard__Controller.html#aa517065c0ed4059b477dfb481539b1b2",tooltip="interpret the reveived scancode and modifier bits "];
  Node2 -> Node3 [dir="back",color="midnightblue",fontsize="10",style="solid",fontname="Helvetica"];
  Node3 [label="Keyboard_Controller\l::key_hit",height=0.2,width=0.4,color="black",URL="$classKeyboard__Controller.html#a78cf6859d88097a0f2b6945fc86c1d21",tooltip="get the last pressed key "];
  Node3 -> Node4 [dir="back",color="midnightblue",fontsize="10",style="solid",fontname="Helvetica"];
  Node4 [label="Keyboard::trigger",height=0.2,width=0.4,color="black",URL="$classKeyboard.html#a0d0359a4df20db7eb38dd769e2322353",tooltip="einen auftretenden Tastaturinterrupt behandeln "];
  Node3 -> Node5 [dir="back",color="midnightblue",fontsize="10",style="solid",fontname="Helvetica"];
  Node5 [label="getSubTask",height=0.2,width=0.4,color="black",URL="$main_8cc.html#af86e540581c6d2867473884cec1246b1",tooltip="Wait for user input via keyboard to select sub task. "];
  Node5 -> Node6 [dir="back",color="midnightblue",fontsize="10",style="solid",fontname="Helvetica"];
  Node6 [label="kernel",height=0.2,width=0.4,color="black",URL="$main_8cc.html#a796315624c9bcf31fd673cb62e4b9819",tooltip="kernel entry point "];
  Node3 -> Node7 [dir="back",color="midnightblue",fontsize="10",style="solid",fontname="Helvetica"];
  Node7 [label="Task1::testKeyboard",height=0.2,width=0.4,color="black",URL="$classTask1.html#a587ce3fad20f9ec4ec88beefd08db49e",tooltip="test the functionality of the Keyboard_Controller object "];
  Node7 -> Node8 [dir="back",color="midnightblue",fontsize="10",style="solid",fontname="Helvetica"];
  Node8 [label="Task1::action",height=0.2,width=0.4,color="black",URL="$classTask1.html#a0d4029a13591e70af436c0ead066ea5c",tooltip="parse and print multiboot information "];
  Node3 -> Node9 [dir="back",color="midnightblue",fontsize="10",style="solid",fontname="Helvetica"];
  Node9 [label="printStack",height=0.2,width=0.4,color="black",URL="$task3B_8cc.html#a1140e1f1ebb85d5c7103af6e0b522c22"];
  Node9 -> Node10 [dir="back",color="midnightblue",fontsize="10",style="solid",fontname="Helvetica"];
  Node10 [label="runFib",height=0.2,width=0.4,color="black",URL="$task3B_8cc.html#a4205b075c53452d0a4cb9966fe2bf855"];
  Node10 -> Node11 [dir="back",color="midnightblue",fontsize="10",style="solid",fontname="Helvetica"];
  Node11 [label="fib",height=0.2,width=0.4,color="black",URL="$task3B_8cc.html#ad1b3bc944aac0dbdd041cc180ff8c37a"];
  Node11 -> Node12 [dir="back",color="midnightblue",fontsize="10",style="solid",fontname="Helvetica"];
  Node12 [label="doTask3BAction",height=0.2,width=0.4,color="black",URL="$task3B_8cc.html#a5874bf2c7fd779b0760c4d5f16bb2d08"];
  Node12 -> Node13 [dir="back",color="midnightblue",fontsize="10",style="solid",fontname="Helvetica"];
  Node13 [label="Task3B::action",height=0.2,width=0.4,color="black",URL="$classTask3B.html#aa803f35a028d2dc338d20d69ab592f20",tooltip="prints the line "];
  Node9 -> Node11 [dir="back",color="midnightblue",fontsize="10",style="solid",fontname="Helvetica"];
  Node9 -> Node12 [dir="back",color="midnightblue",fontsize="10",style="solid",fontname="Helvetica"];
}
