digraph "InterruptLock::lock"
{
  bgcolor="transparent";
  edge [fontname="Helvetica",fontsize="10",labelfontname="Helvetica",labelfontsize="10"];
  node [fontname="Helvetica",fontsize="10",shape=record];
  rankdir="LR";
  Node1 [label="InterruptLock::lock",height=0.2,width=0.4,color="black", fillcolor="grey75", style="filled" fontcolor="black"];
  Node1 -> Node2 [dir="back",color="midnightblue",fontsize="10",style="solid",fontname="Helvetica"];
  Node2 [label="Task4::RotCursor::action",height=0.2,width=0.4,color="black",URL="$classTask4_1_1RotCursor.html#a33e3fee3981896223823f4b396339f40",tooltip="start outputting the symbol "];
  Node1 -> Node3 [dir="back",color="midnightblue",fontsize="10",style="solid",fontname="Helvetica"];
  Node3 [label="Task4::Counter::action",height=0.2,width=0.4,color="black",URL="$classTask4_1_1Counter.html#a93c77e391d4d89cf0c34c47b9521d464",tooltip="start outputting and incrementing the counter value "];
  Node1 -> Node4 [dir="back",color="midnightblue",fontsize="10",style="solid",fontname="Helvetica"];
  Node4 [label="Task5::action",height=0.2,width=0.4,color="black",URL="$classTask5.html#a9348e9a0fadd86b7e76c66d66521fe39",tooltip="Functionality of the fifth test application. "];
}
