digraph "Queue::remove"
{
  bgcolor="transparent";
  edge [fontname="Helvetica",fontsize="10",labelfontname="Helvetica",labelfontsize="10"];
  node [fontname="Helvetica",fontsize="10",shape=record];
  rankdir="LR";
  Node1 [label="Queue::remove",height=0.2,width=0.4,color="black", fillcolor="grey75", style="filled" fontcolor="black"];
  Node1 -> Node2 [dir="back",color="midnightblue",fontsize="10",style="solid",fontname="Helvetica"];
  Node2 [label="Scheduler::kill",height=0.2,width=0.4,color="black",URL="$classScheduler.html#a4d62a845a5b6ac01c5fe796fe8551eec",tooltip="Remove the specified thread from the queue of threads, killing the execution of this thread..."];
}
