digraph "Waitingroom"
{
  bgcolor="transparent";
  edge [fontname="Helvetica",fontsize="10",labelfontname="Helvetica",labelfontsize="10"];
  node [fontname="Helvetica",fontsize="10",shape=record];
  Node1 [label="Waitingroom",height=0.2,width=0.4,color="black", fillcolor="grey75", style="filled" fontcolor="black"];
  Node2 -> Node1 [dir="back",color="midnightblue",fontsize="10",style="solid",fontname="Helvetica"];
  Node2 [label="Queue",height=0.2,width=0.4,color="black",URL="$classQueue.html"];
  Node1 -> Node3 [dir="back",color="midnightblue",fontsize="10",style="solid",fontname="Helvetica"];
  Node3 [label="Semaphore",height=0.2,width=0.4,color="black",URL="$classSemaphore.html",tooltip="Basic synchronisation object. "];
}
