digraph "PIC"
{
  bgcolor="transparent";
  edge [fontname="Helvetica",fontsize="10",labelfontname="Helvetica",labelfontsize="10"];
  node [fontname="Helvetica",fontsize="10",shape=record];
  Node1 [label="PIC",height=0.2,width=0.4,color="black", fillcolor="grey75", style="filled" fontcolor="black"];
  Node2 -> Node1 [dir="back",color="darkorchid3",fontsize="10",style="dashed",label=" ctrl_2\nmask_1\nmask_2\nctrl_1" ,fontname="Helvetica"];
  Node2 [label="IO_Port",height=0.2,width=0.4,color="black",URL="$classIO__Port.html",tooltip="Accessor for I/O-Space. "];
}
