digraph "Panic::trigger"
{
  bgcolor="transparent";
  edge [fontname="Helvetica",fontsize="10",labelfontname="Helvetica",labelfontsize="10"];
  node [fontname="Helvetica",fontsize="10",shape=record];
  rankdir="LR";
  Node1 [label="Panic::trigger",height=0.2,width=0.4,color="black", fillcolor="grey75", style="filled" fontcolor="black"];
  Node1 -> Node2 [color="midnightblue",fontsize="10",style="solid",fontname="Helvetica"];
  Node2 [label="CGA_Stream::flush",height=0.2,width=0.4,color="black",URL="$classCGA__Stream.html#a73572f5377a28f09ee9dc3af7b5a65b9",tooltip="ausgeben des Inhaltes des internen Puffers "];
  Node2 -> Node3 [color="midnightblue",fontsize="10",style="solid",fontname="Helvetica"];
  Node3 [label="CGA_Screen::print",height=0.2,width=0.4,color="black",URL="$classCGA__Screen.html#a6c295831093cab87c3944e39160965b9",tooltip="gibt eine Zeichenkette an der aktuellen Position aus "];
  Node3 -> Node4 [color="midnightblue",fontsize="10",style="solid",fontname="Helvetica"];
  Node4 [label="CGA_Screen::getpos",height=0.2,width=0.4,color="black",URL="$classCGA__Screen.html#a6f47426c0cf0662b6835d64e08cf929e",tooltip="get the cursor position "];
  Node4 -> Node5 [color="midnightblue",fontsize="10",style="solid",fontname="Helvetica"];
  Node5 [label="IO_Port::outb",height=0.2,width=0.4,color="black",URL="$classIO__Port.html#a63edbd1cd64f3188c448e32408c2681c",tooltip="write a byte value to the associated port. "];
  Node4 -> Node6 [color="midnightblue",fontsize="10",style="solid",fontname="Helvetica"];
  Node6 [label="IO_Port::inb",height=0.2,width=0.4,color="black",URL="$classIO__Port.html#a77b7915e167487c31150a4c4b9a15496",tooltip="read a byte value from the associated port. "];
  Node3 -> Node7 [color="midnightblue",fontsize="10",style="solid",fontname="Helvetica"];
  Node7 [label="CGA_Screen::show",height=0.2,width=0.4,color="black",URL="$classCGA__Screen.html#a8176499ecb3ce4e9eb05910e66aee9d2",tooltip="print a character to a specific position "];
  Node3 -> Node8 [color="midnightblue",fontsize="10",style="solid",fontname="Helvetica"];
  Node8 [label="CGA_Screen::scrollup",height=0.2,width=0.4,color="black",URL="$classCGA__Screen.html#a3808a301813e3e1b6368ab75a94ea652",tooltip="das aktuelle Display wird eine Zeile nach oben gescrollt "];
  Node8 -> Node7 [color="midnightblue",fontsize="10",style="solid",fontname="Helvetica"];
  Node3 -> Node9 [color="midnightblue",fontsize="10",style="solid",fontname="Helvetica"];
  Node9 [label="CGA_Screen::setpos",height=0.2,width=0.4,color="black",URL="$classCGA__Screen.html#a346b7ccc05356f76e738a76a24510e33",tooltip="set the cursor position "];
  Node9 -> Node5 [color="midnightblue",fontsize="10",style="solid",fontname="Helvetica"];
  Node1 -> Node9 [color="midnightblue",fontsize="10",style="solid",fontname="Helvetica"];
  Node1 -> Node10 [color="midnightblue",fontsize="10",style="solid",fontname="Helvetica"];
  Node10 [label="endl",height=0.2,width=0.4,color="black",URL="$o__stream_8h.html#a28de23f7cab39bdb0f6a5dc3801b6c6d",tooltip="print buffer after adding a newline "];
  Node10 -> Node11 [color="midnightblue",fontsize="10",style="solid",fontname="Helvetica"];
  Node11 [label="Stringbuffer::flush",height=0.2,width=0.4,color="black",URL="$classStringbuffer.html#abfb79178e3d7520f99aec80f996abaac",tooltip="flush the content of the buffer to the screen "];
  Node1 -> Node12 [color="midnightblue",fontsize="10",style="solid",fontname="Helvetica"];
  Node12 [label="CPU::halt",height=0.2,width=0.4,color="black",URL="$classCPU.html#a189729f4ca240ff52004a34b9057d448"];
}
