digraph "O_Stream"
{
  bgcolor="transparent";
  edge [fontname="Helvetica",fontsize="10",labelfontname="Helvetica",labelfontsize="10"];
  node [fontname="Helvetica",fontsize="10",shape=record];
  Node1 [label="O_Stream",height=0.2,width=0.4,color="black", fillcolor="grey75", style="filled" fontcolor="black"];
  Node2 -> Node1 [dir="back",color="midnightblue",fontsize="10",style="solid",fontname="Helvetica"];
  Node2 [label="Stringbuffer",height=0.2,width=0.4,color="black",URL="$classStringbuffer.html",tooltip="Puffer für die Textausgabe. "];
  Node1 -> Node3 [dir="back",color="midnightblue",fontsize="10",style="solid",fontname="Helvetica"];
  Node3 [label="CGA_Stream",height=0.2,width=0.4,color="black",URL="$classCGA__Stream.html",tooltip="CGA basierte Ausgabe, ählich zu std::cout von C++. "];
  Node1 -> Node4 [dir="back",color="midnightblue",fontsize="10",style="solid",fontname="Helvetica"];
  Node4 [label="Log",height=0.2,width=0.4,color="black",URL="$classLog.html",tooltip="Logging facility for debug messages. "];
}
