digraph "Organizer"
{
  bgcolor="transparent";
  edge [fontname="Helvetica",fontsize="10",labelfontname="Helvetica",labelfontsize="10"];
  node [fontname="Helvetica",fontsize="10",shape=record];
  Node1 [label="Organizer",height=0.2,width=0.4,color="black", fillcolor="grey75", style="filled" fontcolor="black"];
  Node2 -> Node1 [dir="back",color="midnightblue",fontsize="10",style="solid",fontname="Helvetica"];
  Node2 [label="Scheduler",height=0.2,width=0.4,color="black",URL="$classScheduler.html"];
  Node3 -> Node2 [dir="back",color="darkgreen",fontsize="10",style="solid",fontname="Helvetica"];
  Node3 [label="Dispatcher",height=0.2,width=0.4,color="black",URL="$classDispatcher.html",tooltip="Managing currently active threads. "];
}
