digraph "Task4::action"
{
  bgcolor="transparent";
  edge [fontname="Helvetica",fontsize="10",labelfontname="Helvetica",labelfontsize="10"];
  node [fontname="Helvetica",fontsize="10",shape=record];
  rankdir="LR";
  Node1 [label="Task4::action",height=0.2,width=0.4,color="black", fillcolor="grey75", style="filled" fontcolor="black"];
  Node1 -> Node2 [color="midnightblue",fontsize="10",style="solid",fontname="Helvetica"];
  Node2 [label="CGA_Screen::clear",height=0.2,width=0.4,color="black",URL="$classCGA__Screen.html#a622bc3a2822e3006579167343d639353",tooltip="leert den aktuellen Bildschirm "];
  Node2 -> Node3 [color="midnightblue",fontsize="10",style="solid",fontname="Helvetica"];
  Node3 [label="CGA_Screen::show",height=0.2,width=0.4,color="black",URL="$classCGA__Screen.html#a8176499ecb3ce4e9eb05910e66aee9d2",tooltip="print a character to a specific position "];
  Node2 -> Node4 [color="midnightblue",fontsize="10",style="solid",fontname="Helvetica"];
  Node4 [label="CGA_Screen::setpos",height=0.2,width=0.4,color="black",URL="$classCGA__Screen.html#a346b7ccc05356f76e738a76a24510e33",tooltip="set the cursor position "];
  Node4 -> Node5 [color="midnightblue",fontsize="10",style="solid",fontname="Helvetica"];
  Node5 [label="IO_Port::outb",height=0.2,width=0.4,color="black",URL="$classIO__Port.html#a63edbd1cd64f3188c448e32408c2681c",tooltip="write a byte value to the associated port. "];
  Node1 -> Node4 [color="midnightblue",fontsize="10",style="solid",fontname="Helvetica"];
  Node1 -> Node6 [color="midnightblue",fontsize="10",style="solid",fontname="Helvetica"];
  Node6 [label="endl",height=0.2,width=0.4,color="black",URL="$o__stream_8h.html#a28de23f7cab39bdb0f6a5dc3801b6c6d",tooltip="print buffer after adding a newline "];
  Node6 -> Node7 [color="midnightblue",fontsize="10",style="solid",fontname="Helvetica"];
  Node7 [label="Stringbuffer::flush",height=0.2,width=0.4,color="black",URL="$classStringbuffer.html#abfb79178e3d7520f99aec80f996abaac",tooltip="flush the content of the buffer to the screen "];
  Node1 -> Node8 [color="midnightblue",fontsize="10",style="solid",fontname="Helvetica"];
  Node8 [label="Scheduler::insert",height=0.2,width=0.4,color="black",URL="$classScheduler.html#a70b6ae9f124b7bfdf4103e9d0b6e13e1",tooltip="Insert the specified thread into the queue. "];
  Node8 -> Node9 [color="midnightblue",fontsize="10",style="solid",fontname="Helvetica"];
  Node9 [label="Queue::push_back",height=0.2,width=0.4,color="black",URL="$classQueue.html#ac13f716742c5aac9b9a5b6bc9c2346f9"];
  Node8 -> Node6 [color="midnightblue",fontsize="10",style="solid",fontname="Helvetica"];
}
