digraph "CGA_Stream::setAttributes"
{
  bgcolor="transparent";
  edge [fontname="Helvetica",fontsize="10",labelfontname="Helvetica",labelfontsize="10"];
  node [fontname="Helvetica",fontsize="10",shape=record];
  rankdir="LR";
  Node1 [label="CGA_Stream::setAttributes",height=0.2,width=0.4,color="black", fillcolor="grey75", style="filled" fontcolor="black"];
  Node1 -> Node2 [color="midnightblue",fontsize="10",style="solid",fontname="Helvetica"];
  Node2 [label="CGA_Screen::setAttributes",height=0.2,width=0.4,color="black",URL="$classCGA__Screen.html#a3eb2b4abe79b48d8b7b26b85fc857691",tooltip="ändert die aktuellen Standardattribute. "];
}
