digraph "Task3A"
{
  bgcolor="transparent";
  edge [fontname="Helvetica",fontsize="10",labelfontname="Helvetica",labelfontsize="10"];
  node [fontname="Helvetica",fontsize="10",shape=record];
  Node1 [label="Task3A",height=0.2,width=0.4,color="black", fillcolor="grey75", style="filled" fontcolor="black"];
  Node2 -> Node1 [dir="back",color="midnightblue",fontsize="10",style="solid",fontname="Helvetica"];
  Node2 [label="Application",height=0.2,width=0.4,color="black",URL="$classApplication.html",tooltip="Basis of OOStuBs-Applications. "];
  Node3 -> Node2 [dir="back",color="midnightblue",fontsize="10",style="solid",fontname="Helvetica"];
  Node3 [label="Customer",height=0.2,width=0.4,color="black",URL="$classCustomer.html",tooltip="Extension of Thread able to wait in a Waitingroom. "];
  Node4 -> Node3 [dir="back",color="midnightblue",fontsize="10",style="solid",fontname="Helvetica"];
  Node4 [label="Thread",height=0.2,width=0.4,color="black",URL="$classThread.html"];
  Node5 -> Node4 [dir="back",color="midnightblue",fontsize="10",style="solid",fontname="Helvetica"];
  Node5 [label="Queue::Element",height=0.2,width=0.4,color="black",URL="$classQueue_1_1Element.html"];
  Node5 -> Node5 [dir="back",color="darkorchid3",fontsize="10",style="dashed",label=" next" ,fontname="Helvetica"];
  Node6 -> Node4 [dir="back",color="darkorchid3",fontsize="10",style="dashed",label=" context" ,fontname="Helvetica"];
  Node6 [label="Context",height=0.2,width=0.4,color="black",URL="$classContext.html",tooltip="Storage for current context of thread. "];
  Node7 -> Node3 [dir="back",color="darkorchid3",fontsize="10",style="dashed",label=" room" ,fontname="Helvetica"];
  Node7 [label="Waitingroom",height=0.2,width=0.4,color="black",URL="$classWaitingroom.html",tooltip="A waitingroom Customers can wait in. "];
  Node8 -> Node7 [dir="back",color="midnightblue",fontsize="10",style="solid",fontname="Helvetica"];
  Node8 [label="Queue",height=0.2,width=0.4,color="black",URL="$classQueue.html"];
  Node5 -> Node8 [dir="back",color="darkorchid3",fontsize="10",style="dashed",label=" mHead\nmTail" ,fontname="Helvetica"];
}
