digraph "Thread"
{
  bgcolor="transparent";
  edge [fontname="Helvetica",fontsize="10",labelfontname="Helvetica",labelfontsize="10"];
  node [fontname="Helvetica",fontsize="10",shape=record];
  Node1 [label="Thread",height=0.2,width=0.4,color="black", fillcolor="grey75", style="filled" fontcolor="black"];
  Node2 -> Node1 [dir="back",color="midnightblue",fontsize="10",style="solid",fontname="Helvetica"];
  Node2 [label="Queue::Element",height=0.2,width=0.4,color="black",URL="$classQueue_1_1Element.html"];
  Node2 -> Node2 [dir="back",color="darkorchid3",fontsize="10",style="dashed",label=" next" ,fontname="Helvetica"];
  Node3 -> Node1 [dir="back",color="darkorchid3",fontsize="10",style="dashed",label=" context" ,fontname="Helvetica"];
  Node3 [label="Context",height=0.2,width=0.4,color="black",URL="$classContext.html",tooltip="Storage for current context of thread. "];
}
