digraph "JobManager::stop"
{
  bgcolor="transparent";
  edge [fontname="Helvetica",fontsize="10",labelfontname="Helvetica",labelfontsize="10"];
  node [fontname="Helvetica",fontsize="10",shape=record];
  rankdir="LR";
  Node1 [label="JobManager::stop",height=0.2,width=0.4,color="black", fillcolor="grey75", style="filled" fontcolor="black"];
  Node1 -> Node2 [color="midnightblue",fontsize="10",style="solid",fontname="Helvetica"];
  Node2 [label="JobManager::find",height=0.2,width=0.4,color="black",URL="$classJobManager.html#ab8fbc6923c3b44e21a3c333e447c2a04"];
  Node2 -> Node3 [color="midnightblue",fontsize="10",style="solid",fontname="Helvetica"];
  Node3 [label="strcmp",height=0.2,width=0.4,color="black",URL="$string_8h.html#a14e6581584b7433c4440fdc7ecf86aea"];
  Node1 -> Node4 [color="midnightblue",fontsize="10",style="solid",fontname="Helvetica"];
  Node4 [label="Job::stop",height=0.2,width=0.4,color="black",URL="$classJob.html#a830803226d26f84944770bdeee7c846d"];
  Node4 -> Node5 [color="midnightblue",fontsize="10",style="solid",fontname="Helvetica"];
  Node5 [label="Organizer::kill",height=0.2,width=0.4,color="black",URL="$classOrganizer.html#a7c2e2bb3dc282aa52433899807904946",tooltip="Kill a customer either waiting, running or ready. "];
}
