digraph "Watch"
{
  bgcolor="transparent";
  edge [fontname="Helvetica",fontsize="10",labelfontname="Helvetica",labelfontsize="10"];
  node [fontname="Helvetica",fontsize="10",shape=record];
  Node1 [label="Watch",height=0.2,width=0.4,color="black", fillcolor="grey75", style="filled" fontcolor="black"];
  Node2 -> Node1 [dir="back",color="midnightblue",fontsize="10",style="solid",fontname="Helvetica"];
  Node2 [label="PIT",height=0.2,width=0.4,color="black",URL="$classPIT.html"];
  Node3 -> Node2 [dir="back",color="darkorchid3",fontsize="10",style="dashed",label=" pcb" ,fontname="Helvetica"];
  Node3 [label="PIT::PitControlByte",height=0.2,width=0.4,color="black",URL="$unionPIT_1_1PitControlByte.html"];
  Node4 -> Node1 [dir="back",color="midnightblue",fontsize="10",style="solid",fontname="Helvetica"];
  Node4 [label="InterruptHandler",height=0.2,width=0.4,color="black",URL="$classInterruptHandler.html",tooltip="Basisklasse für die Interruptbehandlung. "];
}
