digraph "Serial::baudRate"
{
  bgcolor="transparent";
  edge [fontname="Helvetica",fontsize="10",labelfontname="Helvetica",labelfontsize="10"];
  node [fontname="Helvetica",fontsize="10",shape=record];
  rankdir="LR";
  Node1 [label="Serial::baudRate",height=0.2,width=0.4,color="black", fillcolor="grey75", style="filled" fontcolor="black"];
  Node1 -> Node2 [dir="back",color="midnightblue",fontsize="10",style="solid",fontname="Helvetica"];
  Node2 [label="Serial::Serial",height=0.2,width=0.4,color="black",URL="$classSerial.html#a3667c3137f2df94716b5193f9fb736ab",tooltip="Constructor. "];
  Node1 -> Node3 [dir="back",color="midnightblue",fontsize="10",style="solid",fontname="Helvetica"];
  Node3 [label="Serial::baudRate",height=0.2,width=0.4,color="black",URL="$classSerial.html#a23dd45934b6bcfeabd44b78cb035fae7"];
}
