digraph "Scheduler::reactivate"
{
  bgcolor="transparent";
  edge [fontname="Helvetica",fontsize="10",labelfontname="Helvetica",labelfontsize="10"];
  node [fontname="Helvetica",fontsize="10",shape=record];
  rankdir="LR";
  Node1 [label="Scheduler::reactivate",height=0.2,width=0.4,color="black", fillcolor="grey75", style="filled" fontcolor="black"];
  Node1 -> Node2 [color="midnightblue",fontsize="10",style="solid",fontname="Helvetica"];
  Node2 [label="Queue::push_back",height=0.2,width=0.4,color="black",URL="$classQueue.html#ac13f716742c5aac9b9a5b6bc9c2346f9"];
}
