digraph "src/common" {
  bgcolor=transparent;
  compound=true
  node [ fontsize="10", fontname="Helvetica"];
  edge [ labelfontsize="10", labelfontname="Helvetica"];
  subgraph clusterdir_68267d1309a1af8e8297ef4c3efbcdba {
    graph [ bgcolor="#ddddee", pencolor="black", label="src" fontname="Helvetica", fontsize="10", URL="dir_68267d1309a1af8e8297ef4c3efbcdba.html"]
  dir_fdedb0aba14d44ce9d99bc100e026e6a [shape=box, label="common", style="filled", fillcolor="#eeeeff", pencolor="black", URL="dir_fdedb0aba14d44ce9d99bc100e026e6a.html"];
  }
  dir_d44c64559bbebec7f509842c48db8b23 [shape=box label="include" color="red" URL="dir_d44c64559bbebec7f509842c48db8b23.html"];
  dir_fdedb0aba14d44ce9d99bc100e026e6a->dir_d44c64559bbebec7f509842c48db8b23 [headlabel="10", labeldistance=1.5 headhref="dir_000010_000000.html"];
}
