digraph "include/user/job.h"
{
  bgcolor="transparent";
  edge [fontname="Helvetica",fontsize="10",labelfontname="Helvetica",labelfontsize="10"];
  node [fontname="Helvetica",fontsize="10",shape=record];
  Node1 [label="include/user/job.h",height=0.2,width=0.4,color="black", fillcolor="grey75", style="filled" fontcolor="black"];
  Node1 -> Node2 [color="midnightblue",fontsize="10",style="solid",fontname="Helvetica"];
  Node2 [label="common/o_stream.h",height=0.2,width=0.4,color="black",URL="$o__stream_8h.html"];
  Node2 -> Node3 [color="midnightblue",fontsize="10",style="solid",fontname="Helvetica"];
  Node3 [label="common/strbuf.h",height=0.2,width=0.4,color="black",URL="$strbuf_8h.html"];
  Node3 -> Node4 [color="midnightblue",fontsize="10",style="solid",fontname="Helvetica"];
  Node4 [label="config.h",height=0.2,width=0.4,color="black",URL="$config_8h.html",tooltip="verschiedene defines für Einstellungen "];
}
