digraph "include/user/jobManager.h"
{
  bgcolor="transparent";
  edge [fontname="Helvetica",fontsize="10",labelfontname="Helvetica",labelfontsize="10"];
  node [fontname="Helvetica",fontsize="10",shape=record];
  Node1 [label="include/user/jobManager.h",height=0.2,width=0.4,color="black", fillcolor="grey75", style="filled" fontcolor="black"];
  Node1 -> Node2 [dir="back",color="midnightblue",fontsize="10",style="solid",fontname="Helvetica"];
  Node2 [label="include/user/task5.h",height=0.2,width=0.4,color="black",URL="$task5_8h.html"];
  Node2 -> Node3 [dir="back",color="midnightblue",fontsize="10",style="solid",fontname="Helvetica"];
  Node3 [label="src/main.cc",height=0.2,width=0.4,color="black",URL="$main_8cc.html",tooltip="Grunddatei von OOStuBS. "];
  Node2 -> Node4 [dir="back",color="midnightblue",fontsize="10",style="solid",fontname="Helvetica"];
  Node4 [label="src/user/task5.cc",height=0.2,width=0.4,color="black",URL="$task5_8cc.html"];
  Node1 -> Node5 [dir="back",color="midnightblue",fontsize="10",style="solid",fontname="Helvetica"];
  Node5 [label="src/user/jobManager.cc",height=0.2,width=0.4,color="black",URL="$jobManager_8cc.html"];
}
