digraph "include/common/null.h"
{
  bgcolor="transparent";
  edge [fontname="Helvetica",fontsize="10",labelfontname="Helvetica",labelfontsize="10"];
  node [fontname="Helvetica",fontsize="10",shape=record];
  Node1 [label="include/common/null.h",height=0.2,width=0.4,color="black", fillcolor="grey75", style="filled" fontcolor="black"];
  Node1 -> Node2 [dir="back",color="midnightblue",fontsize="10",style="solid",fontname="Helvetica"];
  Node2 [label="src/common/queue.cc",height=0.2,width=0.4,color="black",URL="$queue_8cc.html"];
  Node1 -> Node3 [dir="back",color="midnightblue",fontsize="10",style="solid",fontname="Helvetica"];
  Node3 [label="src/thread/organizer.cc",height=0.2,width=0.4,color="black",URL="$organizer_8cc.html"];
  Node1 -> Node4 [dir="back",color="midnightblue",fontsize="10",style="solid",fontname="Helvetica"];
  Node4 [label="src/thread/scheduler.cc",height=0.2,width=0.4,color="black",URL="$scheduler_8cc.html"];
  Node1 -> Node5 [dir="back",color="midnightblue",fontsize="10",style="solid",fontname="Helvetica"];
  Node5 [label="src/user/job.cc",height=0.2,width=0.4,color="black",URL="$job_8cc.html"];
  Node1 -> Node6 [dir="back",color="midnightblue",fontsize="10",style="solid",fontname="Helvetica"];
  Node6 [label="src/user/parser.cc",height=0.2,width=0.4,color="black",URL="$parser_8cc.html"];
}
