digraph "include/object/keyboard.h"
{
  bgcolor="transparent";
  edge [fontname="Helvetica",fontsize="10",labelfontname="Helvetica",labelfontsize="10"];
  node [fontname="Helvetica",fontsize="10",shape=record];
  Node1 [label="include/object/keyboard.h",height=0.2,width=0.4,color="black", fillcolor="grey75", style="filled" fontcolor="black"];
  Node1 -> Node2 [color="midnightblue",fontsize="10",style="solid",fontname="Helvetica"];
  Node2 [label="device/keyboard.h",height=0.2,width=0.4,color="black",URL="$device_2keyboard_8h.html"];
  Node2 -> Node3 [color="midnightblue",fontsize="10",style="solid",fontname="Helvetica"];
  Node3 [label="machine/keyctrl.h",height=0.2,width=0.4,color="black",URL="$keyctrl_8h.html"];
  Node3 -> Node4 [color="midnightblue",fontsize="10",style="solid",fontname="Helvetica"];
  Node4 [label="machine/io_port.h",height=0.2,width=0.4,color="black",URL="$io__port_8h.html"];
  Node3 -> Node5 [color="midnightblue",fontsize="10",style="solid",fontname="Helvetica"];
  Node5 [label="machine/key.h",height=0.2,width=0.4,color="black",URL="$key_8h.html"];
  Node2 -> Node6 [color="midnightblue",fontsize="10",style="solid",fontname="Helvetica"];
  Node6 [label="common/interrupthandler.h",height=0.2,width=0.4,color="black",URL="$interrupthandler_8h.html"];
  Node2 -> Node5 [color="midnightblue",fontsize="10",style="solid",fontname="Helvetica"];
  Node2 -> Node7 [color="midnightblue",fontsize="10",style="solid",fontname="Helvetica"];
  Node7 [label="locking/semaphore.h",height=0.2,width=0.4,color="black",URL="$semaphore_8h.html"];
  Node7 -> Node8 [color="midnightblue",fontsize="10",style="solid",fontname="Helvetica"];
  Node8 [label="thread/waitingroom.h",height=0.2,width=0.4,color="black",URL="$waitingroom_8h.html"];
  Node8 -> Node9 [color="midnightblue",fontsize="10",style="solid",fontname="Helvetica"];
  Node9 [label="common/queue.h",height=0.2,width=0.4,color="black",URL="$queue_8h.html"];
}
