digraph "include/object/keyboard.h"
{
  bgcolor="transparent";
  edge [fontname="Helvetica",fontsize="10",labelfontname="Helvetica",labelfontsize="10"];
  node [fontname="Helvetica",fontsize="10",shape=record];
  Node1 [label="include/object/keyboard.h",height=0.2,width=0.4,color="black", fillcolor="grey75", style="filled" fontcolor="black"];
  Node1 -> Node2 [dir="back",color="midnightblue",fontsize="10",style="solid",fontname="Helvetica"];
  Node2 [label="src/user/task2.cc",height=0.2,width=0.4,color="black",URL="$task2_8cc.html"];
  Node1 -> Node3 [dir="back",color="midnightblue",fontsize="10",style="solid",fontname="Helvetica"];
  Node3 [label="src/user/task3B.cc",height=0.2,width=0.4,color="black",URL="$task3B_8cc.html"];
  Node1 -> Node4 [dir="back",color="midnightblue",fontsize="10",style="solid",fontname="Helvetica"];
  Node4 [label="src/user/task4.cc",height=0.2,width=0.4,color="black",URL="$task4_8cc.html"];
  Node1 -> Node5 [dir="back",color="midnightblue",fontsize="10",style="solid",fontname="Helvetica"];
  Node5 [label="src/user/task5.cc",height=0.2,width=0.4,color="black",URL="$task5_8cc.html"];
}
