digraph "include/locking/semaphore.h"
{
  bgcolor="transparent";
  edge [fontname="Helvetica",fontsize="10",labelfontname="Helvetica",labelfontsize="10"];
  node [fontname="Helvetica",fontsize="10",shape=record];
  Node1 [label="include/locking/semaphore.h",height=0.2,width=0.4,color="black", fillcolor="grey75", style="filled" fontcolor="black"];
  Node1 -> Node2 [dir="back",color="midnightblue",fontsize="10",style="solid",fontname="Helvetica"];
  Node2 [label="include/device/keyboard.h",height=0.2,width=0.4,color="black",URL="$device_2keyboard_8h.html"];
  Node2 -> Node3 [dir="back",color="midnightblue",fontsize="10",style="solid",fontname="Helvetica"];
  Node3 [label="include/object/keyboard.h",height=0.2,width=0.4,color="black",URL="$object_2keyboard_8h.html"];
  Node3 -> Node4 [dir="back",color="midnightblue",fontsize="10",style="solid",fontname="Helvetica"];
  Node4 [label="src/user/task2.cc",height=0.2,width=0.4,color="black",URL="$task2_8cc.html"];
  Node3 -> Node5 [dir="back",color="midnightblue",fontsize="10",style="solid",fontname="Helvetica"];
  Node5 [label="src/user/task3B.cc",height=0.2,width=0.4,color="black",URL="$task3B_8cc.html"];
  Node3 -> Node6 [dir="back",color="midnightblue",fontsize="10",style="solid",fontname="Helvetica"];
  Node6 [label="src/user/task4.cc",height=0.2,width=0.4,color="black",URL="$task4_8cc.html"];
  Node3 -> Node7 [dir="back",color="midnightblue",fontsize="10",style="solid",fontname="Helvetica"];
  Node7 [label="src/user/task5.cc",height=0.2,width=0.4,color="black",URL="$task5_8cc.html"];
  Node2 -> Node8 [dir="back",color="midnightblue",fontsize="10",style="solid",fontname="Helvetica"];
  Node8 [label="src/device/keyboard.cc",height=0.2,width=0.4,color="black",URL="$keyboard_8cc.html"];
  Node2 -> Node9 [dir="back",color="midnightblue",fontsize="10",style="solid",fontname="Helvetica"];
  Node9 [label="src/main.cc",height=0.2,width=0.4,color="black",URL="$main_8cc.html",tooltip="Grunddatei von OOStuBS. "];
  Node1 -> Node10 [dir="back",color="midnightblue",fontsize="10",style="solid",fontname="Helvetica"];
  Node10 [label="src/locking/semaphore.cc",height=0.2,width=0.4,color="black",URL="$semaphore_8cc.html"];
}
