digraph "strcmp"
{
  bgcolor="transparent";
  edge [fontname="Helvetica",fontsize="10",labelfontname="Helvetica",labelfontsize="10"];
  node [fontname="Helvetica",fontsize="10",shape=record];
  rankdir="LR";
  Node1 [label="strcmp",height=0.2,width=0.4,color="black", fillcolor="grey75", style="filled" fontcolor="black"];
  Node1 -> Node2 [dir="back",color="midnightblue",fontsize="10",style="solid",fontname="Helvetica"];
  Node2 [label="JobManager::find",height=0.2,width=0.4,color="black",URL="$classJobManager.html#ab8fbc6923c3b44e21a3c333e447c2a04"];
  Node2 -> Node3 [dir="back",color="midnightblue",fontsize="10",style="solid",fontname="Helvetica"];
  Node3 [label="JobManager::registerJob",height=0.2,width=0.4,color="black",URL="$classJobManager.html#aa3094126c99f5b259117673ba1917590"];
  Node3 -> Node4 [dir="back",color="midnightblue",fontsize="10",style="solid",fontname="Helvetica"];
  Node4 [label="Task5::action",height=0.2,width=0.4,color="black",URL="$classTask5.html#a9348e9a0fadd86b7e76c66d66521fe39",tooltip="Functionality of the fifth test application. "];
  Node2 -> Node5 [dir="back",color="midnightblue",fontsize="10",style="solid",fontname="Helvetica"];
  Node5 [label="JobManager::unregisterJob",height=0.2,width=0.4,color="black",URL="$classJobManager.html#a7da952b14b2df911789d1d1d45824ed7"];
  Node2 -> Node6 [dir="back",color="midnightblue",fontsize="10",style="solid",fontname="Helvetica"];
  Node6 [label="JobManager::start",height=0.2,width=0.4,color="black",URL="$classJobManager.html#aafe117fe332e404b103fb2cdfada219b"];
  Node6 -> Node4 [dir="back",color="midnightblue",fontsize="10",style="solid",fontname="Helvetica"];
  Node2 -> Node7 [dir="back",color="midnightblue",fontsize="10",style="solid",fontname="Helvetica"];
  Node7 [label="JobManager::stop",height=0.2,width=0.4,color="black",URL="$classJobManager.html#a4afb0f1d7ce010a08be499285fcbed9b"];
  Node7 -> Node4 [dir="back",color="midnightblue",fontsize="10",style="solid",fontname="Helvetica"];
}
