digraph "include/user/task3B.h"
{
  bgcolor="transparent";
  edge [fontname="Helvetica",fontsize="10",labelfontname="Helvetica",labelfontsize="10"];
  node [fontname="Helvetica",fontsize="10",shape=record];
  Node1 [label="include/user/task3B.h",height=0.2,width=0.4,color="black", fillcolor="grey75", style="filled" fontcolor="black"];
  Node1 -> Node2 [color="midnightblue",fontsize="10",style="solid",fontname="Helvetica"];
  Node2 [label="user/appl.h",height=0.2,width=0.4,color="black",URL="$appl_8h.html",tooltip="Grundklasse für Anwendungen, für die einzelnen Aufgaben benötigt. "];
  Node2 -> Node3 [color="midnightblue",fontsize="10",style="solid",fontname="Helvetica"];
  Node3 [label="thread/customer.h",height=0.2,width=0.4,color="black",URL="$customer_8h.html"];
  Node3 -> Node4 [color="midnightblue",fontsize="10",style="solid",fontname="Helvetica"];
  Node4 [label="thread/thread.h",height=0.2,width=0.4,color="black",URL="$thread_8h.html"];
  Node4 -> Node5 [color="midnightblue",fontsize="10",style="solid",fontname="Helvetica"];
  Node5 [label="machine/context.h",height=0.2,width=0.4,color="black",URL="$context_8h.html"];
  Node4 -> Node6 [color="midnightblue",fontsize="10",style="solid",fontname="Helvetica"];
  Node6 [label="common/queue.h",height=0.2,width=0.4,color="black",URL="$queue_8h.html"];
}
