digraph "include/thread/waitingroom.h"
{
  bgcolor="transparent";
  edge [fontname="Helvetica",fontsize="10",labelfontname="Helvetica",labelfontsize="10"];
  node [fontname="Helvetica",fontsize="10",shape=record];
  Node1 [label="include/thread/waitingroom.h",height=0.2,width=0.4,color="black", fillcolor="grey75", style="filled" fontcolor="black"];
  Node1 -> Node2 [dir="back",color="midnightblue",fontsize="10",style="solid",fontname="Helvetica"];
  Node2 [label="include/locking/semaphore.h",height=0.2,width=0.4,color="black",URL="$semaphore_8h.html"];
  Node2 -> Node3 [dir="back",color="midnightblue",fontsize="10",style="solid",fontname="Helvetica"];
  Node3 [label="include/device/keyboard.h",height=0.2,width=0.4,color="black",URL="$device_2keyboard_8h.html"];
  Node3 -> Node4 [dir="back",color="midnightblue",fontsize="10",style="solid",fontname="Helvetica"];
  Node4 [label="include/object/keyboard.h",height=0.2,width=0.4,color="black",URL="$object_2keyboard_8h.html"];
  Node4 -> Node5 [dir="back",color="midnightblue",fontsize="10",style="solid",fontname="Helvetica"];
  Node5 [label="src/user/task2.cc",height=0.2,width=0.4,color="black",URL="$task2_8cc.html"];
  Node4 -> Node6 [dir="back",color="midnightblue",fontsize="10",style="solid",fontname="Helvetica"];
  Node6 [label="src/user/task3B.cc",height=0.2,width=0.4,color="black",URL="$task3B_8cc.html"];
  Node4 -> Node7 [dir="back",color="midnightblue",fontsize="10",style="solid",fontname="Helvetica"];
  Node7 [label="src/user/task4.cc",height=0.2,width=0.4,color="black",URL="$task4_8cc.html"];
  Node4 -> Node8 [dir="back",color="midnightblue",fontsize="10",style="solid",fontname="Helvetica"];
  Node8 [label="src/user/task5.cc",height=0.2,width=0.4,color="black",URL="$task5_8cc.html"];
  Node3 -> Node9 [dir="back",color="midnightblue",fontsize="10",style="solid",fontname="Helvetica"];
  Node9 [label="src/device/keyboard.cc",height=0.2,width=0.4,color="black",URL="$keyboard_8cc.html"];
  Node3 -> Node10 [dir="back",color="midnightblue",fontsize="10",style="solid",fontname="Helvetica"];
  Node10 [label="src/main.cc",height=0.2,width=0.4,color="black",URL="$main_8cc.html",tooltip="Grunddatei von OOStuBS. "];
  Node2 -> Node11 [dir="back",color="midnightblue",fontsize="10",style="solid",fontname="Helvetica"];
  Node11 [label="src/locking/semaphore.cc",height=0.2,width=0.4,color="black",URL="$semaphore_8cc.html"];
  Node1 -> Node12 [dir="back",color="midnightblue",fontsize="10",style="solid",fontname="Helvetica"];
  Node12 [label="include/thread/organizer.h",height=0.2,width=0.4,color="black",URL="$organizer_8h.html"];
  Node12 -> Node13 [dir="back",color="midnightblue",fontsize="10",style="solid",fontname="Helvetica"];
  Node13 [label="include/object/scheduler.h",height=0.2,width=0.4,color="black",URL="$object_2scheduler_8h.html"];
  Node13 -> Node14 [dir="back",color="midnightblue",fontsize="10",style="solid",fontname="Helvetica"];
  Node14 [label="src/device/watch.cc",height=0.2,width=0.4,color="black",URL="$watch_8cc.html"];
  Node13 -> Node11 [dir="back",color="midnightblue",fontsize="10",style="solid",fontname="Helvetica"];
  Node13 -> Node15 [dir="back",color="midnightblue",fontsize="10",style="solid",fontname="Helvetica"];
  Node15 [label="src/thread/thread.cc",height=0.2,width=0.4,color="black",URL="$thread_8cc.html"];
  Node13 -> Node16 [dir="back",color="midnightblue",fontsize="10",style="solid",fontname="Helvetica"];
  Node16 [label="src/thread/waitingroom.cc",height=0.2,width=0.4,color="black",URL="$waitingroom_8cc.html"];
  Node13 -> Node17 [dir="back",color="midnightblue",fontsize="10",style="solid",fontname="Helvetica"];
  Node17 [label="src/user/job.cc",height=0.2,width=0.4,color="black",URL="$job_8cc.html"];
  Node13 -> Node7 [dir="back",color="midnightblue",fontsize="10",style="solid",fontname="Helvetica"];
  Node12 -> Node10 [dir="back",color="midnightblue",fontsize="10",style="solid",fontname="Helvetica"];
  Node12 -> Node18 [dir="back",color="midnightblue",fontsize="10",style="solid",fontname="Helvetica"];
  Node18 [label="src/thread/organizer.cc",height=0.2,width=0.4,color="black",URL="$organizer_8cc.html"];
  Node1 -> Node16 [dir="back",color="midnightblue",fontsize="10",style="solid",fontname="Helvetica"];
}
