digraph "src/device/watch.cc"
{
  bgcolor="transparent";
  edge [fontname="Helvetica",fontsize="10",labelfontname="Helvetica",labelfontsize="10"];
  node [fontname="Helvetica",fontsize="10",shape=record];
  Node1 [label="src/device/watch.cc",height=0.2,width=0.4,color="black", fillcolor="grey75", style="filled" fontcolor="black"];
  Node1 -> Node2 [color="midnightblue",fontsize="10",style="solid",fontname="Helvetica"];
  Node2 [label="device/watch.h",height=0.2,width=0.4,color="black",URL="$watch_8h.html"];
  Node2 -> Node3 [color="midnightblue",fontsize="10",style="solid",fontname="Helvetica"];
  Node3 [label="common/interrupthandler.h",height=0.2,width=0.4,color="black",URL="$interrupthandler_8h.html"];
  Node2 -> Node4 [color="midnightblue",fontsize="10",style="solid",fontname="Helvetica"];
  Node4 [label="machine/pit.h",height=0.2,width=0.4,color="black",URL="$pit_8h.html"];
  Node4 -> Node5 [color="midnightblue",fontsize="10",style="solid",fontname="Helvetica"];
  Node5 [label="stdint.h",height=0.2,width=0.4,color="grey75"];
  Node4 -> Node6 [color="midnightblue",fontsize="10",style="solid",fontname="Helvetica"];
  Node6 [label="machine/io_port.h",height=0.2,width=0.4,color="black",URL="$io__port_8h.html"];
  Node1 -> Node7 [color="midnightblue",fontsize="10",style="solid",fontname="Helvetica"];
  Node7 [label="object/imanager.h",height=0.2,width=0.4,color="black",URL="$imanager_8h.html"];
  Node7 -> Node8 [color="midnightblue",fontsize="10",style="solid",fontname="Helvetica"];
  Node8 [label="device/interruptmanager.h",height=0.2,width=0.4,color="black",URL="$interruptmanager_8h.html"];
  Node8 -> Node9 [color="midnightblue",fontsize="10",style="solid",fontname="Helvetica"];
  Node9 [label="common/interruptstorage.h",height=0.2,width=0.4,color="black",URL="$interruptstorage_8h.html"];
  Node9 -> Node3 [color="midnightblue",fontsize="10",style="solid",fontname="Helvetica"];
  Node9 -> Node10 [color="midnightblue",fontsize="10",style="solid",fontname="Helvetica"];
  Node10 [label="config.h",height=0.2,width=0.4,color="black",URL="$config_8h.html",tooltip="verschiedene defines für Einstellungen "];
  Node9 -> Node11 [color="midnightblue",fontsize="10",style="solid",fontname="Helvetica"];
  Node11 [label="common/panic.h",height=0.2,width=0.4,color="black",URL="$panic_8h.html"];
  Node11 -> Node3 [color="midnightblue",fontsize="10",style="solid",fontname="Helvetica"];
  Node8 -> Node12 [color="midnightblue",fontsize="10",style="solid",fontname="Helvetica"];
  Node12 [label="machine/pic.h",height=0.2,width=0.4,color="black",URL="$pic_8h.html"];
  Node12 -> Node6 [color="midnightblue",fontsize="10",style="solid",fontname="Helvetica"];
  Node1 -> Node13 [color="midnightblue",fontsize="10",style="solid",fontname="Helvetica"];
  Node13 [label="object/scheduler.h",height=0.2,width=0.4,color="black",URL="$object_2scheduler_8h.html"];
  Node13 -> Node14 [color="midnightblue",fontsize="10",style="solid",fontname="Helvetica"];
  Node14 [label="thread/organizer.h",height=0.2,width=0.4,color="black",URL="$organizer_8h.html"];
  Node14 -> Node15 [color="midnightblue",fontsize="10",style="solid",fontname="Helvetica"];
  Node15 [label="thread/scheduler.h",height=0.2,width=0.4,color="black",URL="$thread_2scheduler_8h.html"];
  Node15 -> Node16 [color="midnightblue",fontsize="10",style="solid",fontname="Helvetica"];
  Node16 [label="thread/dispatch.h",height=0.2,width=0.4,color="black",URL="$dispatch_8h.html"];
  Node16 -> Node17 [color="midnightblue",fontsize="10",style="solid",fontname="Helvetica"];
  Node17 [label="thread/thread.h",height=0.2,width=0.4,color="black",URL="$thread_8h.html"];
  Node17 -> Node18 [color="midnightblue",fontsize="10",style="solid",fontname="Helvetica"];
  Node18 [label="machine/context.h",height=0.2,width=0.4,color="black",URL="$context_8h.html"];
  Node17 -> Node19 [color="midnightblue",fontsize="10",style="solid",fontname="Helvetica"];
  Node19 [label="common/queue.h",height=0.2,width=0.4,color="black",URL="$queue_8h.html"];
  Node15 -> Node19 [color="midnightblue",fontsize="10",style="solid",fontname="Helvetica"];
  Node15 -> Node2 [color="midnightblue",fontsize="10",style="solid",fontname="Helvetica"];
  Node14 -> Node20 [color="midnightblue",fontsize="10",style="solid",fontname="Helvetica"];
  Node20 [label="thread/customer.h",height=0.2,width=0.4,color="black",URL="$customer_8h.html"];
  Node20 -> Node17 [color="midnightblue",fontsize="10",style="solid",fontname="Helvetica"];
  Node14 -> Node21 [color="midnightblue",fontsize="10",style="solid",fontname="Helvetica"];
  Node21 [label="thread/waitingroom.h",height=0.2,width=0.4,color="black",URL="$waitingroom_8h.html"];
  Node21 -> Node19 [color="midnightblue",fontsize="10",style="solid",fontname="Helvetica"];
}
