digraph G
{
  bgcolor="transparent";
  edge [fontname="Helvetica",fontsize="10",labelfontname="Helvetica",labelfontsize="10"];
  node [fontname="Helvetica",fontsize="10",shape=record];
  Node1 [label="CGA_Stream",height=0.2,width=0.4,color="black", fillcolor="grey75", style="filled" fontcolor="black"];
  Node2 -> Node1 [dir="back",color="midnightblue",fontsize="10",style="solid",fontname="Helvetica"];
  Node2 [label="O_Stream",height=0.2,width=0.4,color="black",URL="$classO__Stream.html",tooltip="Manipulation class providing formatted output support."];
  Node3 -> Node2 [dir="back",color="midnightblue",fontsize="10",style="solid",fontname="Helvetica"];
  Node3 [label="Stringbuffer",height=0.2,width=0.4,color="black",URL="$classStringbuffer.html",tooltip="Buffer containing text to output."];
  Node4 -> Node1 [dir="back",color="midnightblue",fontsize="10",style="solid",fontname="Helvetica"];
  Node4 [label="CGA_Screen",height=0.2,width=0.4,color="black",URL="$classCGA__Screen.html",tooltip="CGA-Dispaly driver."];
  Node5 -> Node4 [dir="back",color="darkorchid3",fontsize="10",style="dashed",label=" data_port\nindex_port" ,fontname="Helvetica"];
  Node5 [label="IO_Port",height=0.2,width=0.4,color="black",URL="$classIO__Port.html",tooltip="Accessor for I/O-Space."];
  Node6 -> Node4 [dir="back",color="darkorchid3",fontsize="10",style="dashed",label=" screen" ,fontname="Helvetica"];
  Node6 [label="CGA_Screen::ScreenChar",height=0.2,width=0.4,color="black",URL="$structCGA__Screen_1_1ScreenChar.html"];
}
