digraph G
{
  bgcolor="transparent";
  edge [fontname="Helvetica",fontsize="10",labelfontname="Helvetica",labelfontsize="10"];
  node [fontname="Helvetica",fontsize="10",shape=record];
  Node1 [label="InterruptManager",height=0.2,width=0.4,color="black", fillcolor="grey75", style="filled" fontcolor="black"];
  Node2 -> Node1 [dir="back",color="midnightblue",fontsize="10",style="solid",fontname="Helvetica"];
  Node2 [label="InterruptStorage",height=0.2,width=0.4,color="black",URL="$classInterruptStorage.html",tooltip="Interrupt forwarding administration unit."];
  Node3 -> Node2 [dir="back",color="darkorchid3",fontsize="10",style="dashed",label=" panic" ,fontname="Helvetica"];
  Node3 [label="Panic",height=0.2,width=0.4,color="black",URL="$classPanic.html",tooltip="Default interrupt handler."];
  Node4 -> Node3 [dir="back",color="midnightblue",fontsize="10",style="solid",fontname="Helvetica"];
  Node4 [label="InterruptHandler",height=0.2,width=0.4,color="black",URL="$classInterruptHandler.html",tooltip="Interrupt handling base class."];
  Node4 -> Node2 [dir="back",color="darkorchid3",fontsize="10",style="dashed",label=" mHandler" ,fontname="Helvetica"];
  Node5 -> Node1 [dir="back",color="midnightblue",fontsize="10",style="solid",fontname="Helvetica"];
  Node5 [label="PIC",height=0.2,width=0.4,color="black",URL="$classPIC.html",tooltip="Driver for Programmable Interrupt Controller."];
  Node6 -> Node5 [dir="back",color="darkorchid3",fontsize="10",style="dashed",label=" ctrl_2\nmask_1\nmask_2\nctrl_1" ,fontname="Helvetica"];
  Node6 [label="IO_Port",height=0.2,width=0.4,color="black",URL="$classIO__Port.html",tooltip="Accessor for I/O-Space."];
}
