digraph G
{
  bgcolor="transparent";
  edge [fontname="Helvetica",fontsize="10",labelfontname="Helvetica",labelfontsize="10"];
  node [fontname="Helvetica",fontsize="10",shape=record];
  rankdir="LR";
  Node1 [label="CGA_Screen::clear",height=0.2,width=0.4,color="black", fillcolor="grey75", style="filled" fontcolor="black"];
  Node1 -> Node2 [dir="back",color="midnightblue",fontsize="10",style="solid",fontname="Helvetica"];
  Node2 [label="CGA_Screen::CGA_Screen",height=0.2,width=0.4,color="black",URL="$classCGA__Screen.html#a4415c1855a6afdc5cd3116e5fa054252",tooltip="Constructor."];
  Node1 -> Node3 [dir="back",color="midnightblue",fontsize="10",style="solid",fontname="Helvetica"];
  Node3 [label="printException",height=0.2,width=0.4,color="black",URL="$exceptions_8cc.html#aa9be12416ab5fcc6ced0ea49ff7825de"];
  Node3 -> Node4 [dir="back",color="midnightblue",fontsize="10",style="solid",fontname="Helvetica"];
  Node4 [label="exception",height=0.2,width=0.4,color="black",URL="$exceptions_8cc.html#a17ac45e3213989a19bb1472093ca30e6",tooltip="Entry point for exceptions."];
  Node1 -> Node5 [dir="back",color="midnightblue",fontsize="10",style="solid",fontname="Helvetica"];
  Node5 [label="Task4::action",height=0.2,width=0.4,color="black",URL="$classTask4.html#a2a7d07836599ad51be274201cf6c2027",tooltip="start operation"];
}
