digraph G
{
  bgcolor="transparent";
  edge [fontname="Helvetica",fontsize="10",labelfontname="Helvetica",labelfontsize="10"];
  node [fontname="Helvetica",fontsize="10",shape=record];
  rankdir="LR";
  Node1 [label="Context::Context",height=0.2,width=0.4,color="black", fillcolor="grey75", style="filled" fontcolor="black"];
  Node1 -> Node2 [color="midnightblue",fontsize="10",style="solid",fontname="Helvetica"];
  Node2 [label="Thread::kickoff",height=0.2,width=0.4,color="black",URL="$classThread.html#acbe0a6de445c1c2dbe20e8741a9ed531",tooltip="Kickoff function to initiate thread action."];
}
