digraph G
{
  bgcolor="transparent";
  edge [fontname="Helvetica",fontsize="10",labelfontname="Helvetica",labelfontsize="10"];
  node [fontname="Helvetica",fontsize="10",shape=record];
  rankdir="LR";
  Node1 [label="InterruptStorage::iNum2Index",height=0.2,width=0.4,color="black", fillcolor="grey75", style="filled" fontcolor="black"];
  Node1 -> Node2 [dir="back",color="midnightblue",fontsize="10",style="solid",fontname="Helvetica"];
  Node2 [label="InterruptStorage::assign",height=0.2,width=0.4,color="black",URL="$classInterruptStorage.html#aa0e85a2fde141c1e2017ddf360e8d6ae",tooltip="assign a Handle to a specific interrupt"];
  Node1 -> Node3 [dir="back",color="midnightblue",fontsize="10",style="solid",fontname="Helvetica"];
  Node3 [label="InterruptStorage::handle",height=0.2,width=0.4,color="black",URL="$classInterruptStorage.html#a5ca87e7425e996fb19401e8e8ae2bbe6",tooltip="execute the handler of a specific interrupt"];
  Node3 -> Node4 [dir="back",color="midnightblue",fontsize="10",style="solid",fontname="Helvetica"];
  Node4 [label="exception",height=0.2,width=0.4,color="black",URL="$exceptions_8cc.html#a17ac45e3213989a19bb1472093ca30e6",tooltip="Entry point for exceptions."];
}
