digraph G
{
  bgcolor="transparent";
  edge [fontname="Helvetica",fontsize="10",labelfontname="Helvetica",labelfontsize="10"];
  node [fontname="Helvetica",fontsize="10",shape=record];
  Node1 [label="Task4::RotCursor",height=0.2,width=0.4,color="black", fillcolor="grey75", style="filled" fontcolor="black"];
  Node2 -> Node1 [dir="back",color="midnightblue",fontsize="10",style="solid",fontname="Helvetica"];
  Node2 [label="Application",height=0.2,width=0.4,color="black",URL="$classApplication.html",tooltip="Basis of OOStuBs-Applications."];
  Node3 -> Node2 [dir="back",color="midnightblue",fontsize="10",style="solid",fontname="Helvetica"];
  Node3 [label="Thread",height=0.2,width=0.4,color="black",URL="$classThread.html",tooltip="Basic multitasking entity."];
  Node4 -> Node3 [dir="back",color="midnightblue",fontsize="10",style="solid",fontname="Helvetica"];
  Node4 [label="Queue::Element",height=0.2,width=0.4,color="black",URL="$classQueue_1_1Element.html"];
}
