digraph G
{
  bgcolor="transparent";
  edge [fontname="Helvetica",fontsize="10",labelfontname="Helvetica",labelfontsize="10"];
  node [fontname="Helvetica",fontsize="10",shape=record];
  rankdir="LR";
  Node1 [label="Task4::Counter::enableCoop",height=0.2,width=0.4,color="black", fillcolor="grey75", style="filled" fontcolor="black"];
  Node1 -> Node2 [dir="back",color="midnightblue",fontsize="10",style="solid",fontname="Helvetica"];
  Node2 [label="Task4::enableCoop",height=0.2,width=0.4,color="black",URL="$classTask4.html#a5ec390882239e7957f43edaf891156eb",tooltip="switch sub tasks to cooperative scheduling"];
  Node2 -> Node3 [dir="back",color="midnightblue",fontsize="10",style="solid",fontname="Helvetica"];
  Node3 [label="kernel",height=0.2,width=0.4,color="black",URL="$main_8cc.html#a796315624c9bcf31fd673cb62e4b9819",tooltip="kernel entry point"];
}
