digraph G
{
  bgcolor="transparent";
  edge [fontname="Helvetica",fontsize="10",labelfontname="Helvetica",labelfontsize="10"];
  node [fontname="Helvetica",fontsize="10",shape=record];
  rankdir="LR";
  Node1 [label="InterruptLock::unlock",height=0.2,width=0.4,color="black", fillcolor="grey75", style="filled" fontcolor="black"];
  Node1 -> Node2 [color="midnightblue",fontsize="10",style="solid",fontname="Helvetica"];
  Node2 [label="endl",height=0.2,width=0.4,color="black",URL="$o__stream_8h.html#a28de23f7cab39bdb0f6a5dc3801b6c6d",tooltip="print buffer after adding a newline"];
  Node2 -> Node3 [color="midnightblue",fontsize="10",style="solid",fontname="Helvetica"];
  Node3 [label="Stringbuffer::flush",height=0.2,width=0.4,color="black",URL="$classStringbuffer.html#abfb79178e3d7520f99aec80f996abaac",tooltip="flush the content of the buffer to the screen"];
  Node1 -> Node4 [color="midnightblue",fontsize="10",style="solid",fontname="Helvetica"];
  Node4 [label="CPU::enable_int",height=0.2,width=0.4,color="black",URL="$classCPU.html#ab5e5a2260ef84a433c181786f11c4609",tooltip="globally enable interrupts"];
}
