digraph G
{
  bgcolor="transparent";
  edge [fontname="Helvetica",fontsize="10",labelfontname="Helvetica",labelfontsize="10"];
  node [fontname="Helvetica",fontsize="10",shape=record];
  rankdir="LR";
  Node1 [label="CGA_Screen::ScreenChar",height=0.2,width=0.4,color="black",URL="$structCGA__Screen_1_1ScreenChar.html"];
}
