digraph G
{
  bgcolor="transparent";
  edge [fontname="Helvetica",fontsize="10",labelfontname="Helvetica",labelfontsize="10"];
  node [fontname="Helvetica",fontsize="10",shape=record];
  rankdir="LR";
  Node1 [label="PIT::PitControlByte",height=0.2,width=0.4,color="black",URL="$unionPIT_1_1PitControlByte.html"];
}
