digraph G
{
  bgcolor="transparent";
  edge [fontname="Helvetica",fontsize="10",labelfontname="Helvetica",labelfontsize="10"];
  node [fontname="Helvetica",fontsize="10",shape=record];
  rankdir="LR";
  Node1 [label="Queue::Element",height=0.2,width=0.4,color="black",URL="$classQueue_1_1Element.html"];
  Node1 -> Node2 [dir="back",color="midnightblue",fontsize="10",style="solid",fontname="Helvetica"];
  Node2 [label="Thread",height=0.2,width=0.4,color="black",URL="$classThread.html",tooltip="Basic multitasking entity."];
  Node2 -> Node3 [dir="back",color="midnightblue",fontsize="10",style="solid",fontname="Helvetica"];
  Node3 [label="Application",height=0.2,width=0.4,color="black",URL="$classApplication.html",tooltip="Basis of OOStuBs-Applications."];
  Node3 -> Node4 [dir="back",color="midnightblue",fontsize="10",style="solid",fontname="Helvetica"];
  Node4 [label="Task1",height=0.2,width=0.4,color="black",URL="$classTask1.html",tooltip="First test application."];
  Node3 -> Node5 [dir="back",color="midnightblue",fontsize="10",style="solid",fontname="Helvetica"];
  Node5 [label="Task2",height=0.2,width=0.4,color="black",URL="$classTask2.html",tooltip="Second test application."];
  Node3 -> Node6 [dir="back",color="midnightblue",fontsize="10",style="solid",fontname="Helvetica"];
  Node6 [label="Task3A",height=0.2,width=0.4,color="black",URL="$classTask3A.html",tooltip="Third test application, part 1."];
  Node3 -> Node7 [dir="back",color="midnightblue",fontsize="10",style="solid",fontname="Helvetica"];
  Node7 [label="Task3B",height=0.2,width=0.4,color="black",URL="$classTask3B.html",tooltip="Third test application, part 2."];
  Node3 -> Node8 [dir="back",color="midnightblue",fontsize="10",style="solid",fontname="Helvetica"];
  Node8 [label="Task4",height=0.2,width=0.4,color="black",URL="$classTask4.html",tooltip="Fourth test application."];
  Node3 -> Node9 [dir="back",color="midnightblue",fontsize="10",style="solid",fontname="Helvetica"];
  Node9 [label="Task4::Counter",height=0.2,width=0.4,color="black",URL="$classTask4_1_1Counter.html",tooltip="Counting application."];
  Node3 -> Node10 [dir="back",color="midnightblue",fontsize="10",style="solid",fontname="Helvetica"];
  Node10 [label="Task4::RotCursor",height=0.2,width=0.4,color="black",URL="$classTask4_1_1RotCursor.html",tooltip="Rotating symbol application"];
}
