digraph G
{
  bgcolor="transparent";
  edge [fontname="Helvetica",fontsize="10",labelfontname="Helvetica",labelfontsize="10"];
  node [fontname="Helvetica",fontsize="10",shape=record];
  Node1 [label="src/locking/interruptLock.cc",height=0.2,width=0.4,color="black", fillcolor="grey75", style="filled" fontcolor="black"];
  Node1 -> Node2 [color="midnightblue",fontsize="10",style="solid",fontname="Helvetica"];
  Node2 [label="locking/interruptLock.h",height=0.2,width=0.4,color="black",URL="$interruptLock_8h.html"];
  Node2 -> Node3 [color="midnightblue",fontsize="10",style="solid",fontname="Helvetica"];
  Node3 [label="locking/lock.h",height=0.2,width=0.4,color="black",URL="$locking_2lock_8h.html"];
  Node1 -> Node4 [color="midnightblue",fontsize="10",style="solid",fontname="Helvetica"];
  Node4 [label="object/log.h",height=0.2,width=0.4,color="black",URL="$object_2log_8h.html"];
  Node4 -> Node5 [color="midnightblue",fontsize="10",style="solid",fontname="Helvetica"];
  Node5 [label="device/log.h",height=0.2,width=0.4,color="black",URL="$device_2log_8h.html"];
  Node5 -> Node6 [color="midnightblue",fontsize="10",style="solid",fontname="Helvetica"];
  Node6 [label="common/o_stream.h",height=0.2,width=0.4,color="black",URL="$o__stream_8h.html"];
  Node6 -> Node7 [color="midnightblue",fontsize="10",style="solid",fontname="Helvetica"];
  Node7 [label="common/strbuf.h",height=0.2,width=0.4,color="black",URL="$strbuf_8h.html"];
  Node7 -> Node8 [color="midnightblue",fontsize="10",style="solid",fontname="Helvetica"];
  Node8 [label="config.h",height=0.2,width=0.4,color="black",URL="$config_8h.html",tooltip="defines for different configurations of OOStuBS"];
  Node5 -> Node9 [color="midnightblue",fontsize="10",style="solid",fontname="Helvetica"];
  Node9 [label="machine/serial.h",height=0.2,width=0.4,color="black",URL="$serial_8h.html"];
  Node9 -> Node10 [color="midnightblue",fontsize="10",style="solid",fontname="Helvetica"];
  Node10 [label="machine/io_port.h",height=0.2,width=0.4,color="black",URL="$io__port_8h.html"];
  Node1 -> Node11 [color="midnightblue",fontsize="10",style="solid",fontname="Helvetica"];
  Node11 [label="object/cpu.h",height=0.2,width=0.4,color="black",URL="$object_2cpu_8h.html",tooltip="help include file for use of global declared variable cpu, declared in main.cc"];
  Node11 -> Node12 [color="midnightblue",fontsize="10",style="solid",fontname="Helvetica"];
  Node12 [label="machine/cpu.h",height=0.2,width=0.4,color="black",URL="$machine_2cpu_8h.html"];
}
