digraph G
{
  bgcolor="transparent";
  edge [fontname="Helvetica",fontsize="10",labelfontname="Helvetica",labelfontsize="10"];
  node [fontname="Helvetica",fontsize="10",shape=record];
  Node1 [label="include/common/o_stream.h",height=0.2,width=0.4,color="black", fillcolor="grey75", style="filled" fontcolor="black"];
  Node1 -> Node2 [dir="back",color="midnightblue",fontsize="10",style="solid",fontname="Helvetica"];
  Node2 [label="include/device/cgastr.h",height=0.2,width=0.4,color="black",URL="$cgastr_8h.html"];
  Node2 -> Node3 [dir="back",color="midnightblue",fontsize="10",style="solid",fontname="Helvetica"];
  Node3 [label="include/object/kout.h",height=0.2,width=0.4,color="black",URL="$kout_8h.html",tooltip="help include file for use of global declared variable kout, declared in main.cc"];
  Node3 -> Node4 [dir="back",color="midnightblue",fontsize="10",style="solid",fontname="Helvetica"];
  Node4 [label="src/common/panic.cc",height=0.2,width=0.4,color="black",URL="$panic_8cc.html"];
  Node3 -> Node5 [dir="back",color="midnightblue",fontsize="10",style="solid",fontname="Helvetica"];
  Node5 [label="src/device/keyboard.cc",height=0.2,width=0.4,color="black",URL="$keyboard_8cc.html"];
  Node3 -> Node6 [dir="back",color="midnightblue",fontsize="10",style="solid",fontname="Helvetica"];
  Node6 [label="src/machine/exceptions.cc",height=0.2,width=0.4,color="black",URL="$exceptions_8cc.html",tooltip="interrupt handler function"];
  Node3 -> Node7 [dir="back",color="midnightblue",fontsize="10",style="solid",fontname="Helvetica"];
  Node7 [label="src/user/analyse.cc",height=0.2,width=0.4,color="black",URL="$analyse_8cc.html"];
  Node3 -> Node8 [dir="back",color="midnightblue",fontsize="10",style="solid",fontname="Helvetica"];
  Node8 [label="src/user/task2.cc",height=0.2,width=0.4,color="black",URL="$task2_8cc.html"];
  Node3 -> Node9 [dir="back",color="midnightblue",fontsize="10",style="solid",fontname="Helvetica"];
  Node9 [label="src/user/task3A.cc",height=0.2,width=0.4,color="black",URL="$task3A_8cc.html"];
  Node3 -> Node10 [dir="back",color="midnightblue",fontsize="10",style="solid",fontname="Helvetica"];
  Node10 [label="src/user/task3B.cc",height=0.2,width=0.4,color="black",URL="$task3B_8cc.html"];
  Node3 -> Node11 [dir="back",color="midnightblue",fontsize="10",style="solid",fontname="Helvetica"];
  Node11 [label="src/user/task4.cc",height=0.2,width=0.4,color="black",URL="$task4_8cc.html"];
  Node2 -> Node12 [dir="back",color="midnightblue",fontsize="10",style="solid",fontname="Helvetica"];
  Node12 [label="src/device/cgastr.cc",height=0.2,width=0.4,color="black",URL="$cgastr_8cc.html",tooltip="implementation of CGA_Stream"];
  Node2 -> Node13 [dir="back",color="midnightblue",fontsize="10",style="solid",fontname="Helvetica"];
  Node13 [label="src/main.cc",height=0.2,width=0.4,color="black",URL="$main_8cc.html"];
  Node2 -> Node14 [dir="back",color="midnightblue",fontsize="10",style="solid",fontname="Helvetica"];
  Node14 [label="src/user/task1.cc",height=0.2,width=0.4,color="black",URL="$task1_8cc.html"];
  Node1 -> Node15 [dir="back",color="midnightblue",fontsize="10",style="solid",fontname="Helvetica"];
  Node15 [label="include/device/log.h",height=0.2,width=0.4,color="black",URL="$device_2log_8h.html"];
  Node15 -> Node16 [dir="back",color="midnightblue",fontsize="10",style="solid",fontname="Helvetica"];
  Node16 [label="include/object/log.h",height=0.2,width=0.4,color="black",URL="$object_2log_8h.html"];
  Node16 -> Node17 [dir="back",color="midnightblue",fontsize="10",style="solid",fontname="Helvetica"];
  Node17 [label="src/locking/interruptLock.cc",height=0.2,width=0.4,color="black",URL="$interruptLock_8cc.html"];
  Node16 -> Node18 [dir="back",color="midnightblue",fontsize="10",style="solid",fontname="Helvetica"];
  Node18 [label="src/thread/scheduler.cc",height=0.2,width=0.4,color="black",URL="$scheduler_8cc.html"];
  Node16 -> Node19 [dir="back",color="midnightblue",fontsize="10",style="solid",fontname="Helvetica"];
  Node19 [label="src/thread/thread.cc",height=0.2,width=0.4,color="black",URL="$thread_8cc.html"];
  Node16 -> Node11 [dir="back",color="midnightblue",fontsize="10",style="solid",fontname="Helvetica"];
  Node15 -> Node20 [dir="back",color="midnightblue",fontsize="10",style="solid",fontname="Helvetica"];
  Node20 [label="src/device/log.cc",height=0.2,width=0.4,color="black",URL="$log_8cc.html"];
  Node15 -> Node13 [dir="back",color="midnightblue",fontsize="10",style="solid",fontname="Helvetica"];
  Node1 -> Node21 [dir="back",color="midnightblue",fontsize="10",style="solid",fontname="Helvetica"];
  Node21 [label="src/common/o_stream.cc",height=0.2,width=0.4,color="black",URL="$o__stream_8cc.html"];
  Node1 -> Node7 [dir="back",color="midnightblue",fontsize="10",style="solid",fontname="Helvetica"];
}
