digraph G
{
  bgcolor="transparent";
  edge [fontname="Helvetica",fontsize="10",labelfontname="Helvetica",labelfontsize="10"];
  node [fontname="Helvetica",fontsize="10",shape=record];
  rankdir="LR";
  Node1 [label="doTask3BAction",height=0.2,width=0.4,color="black", fillcolor="grey75", style="filled" fontcolor="black"];
  Node1 -> Node2 [dir="back",color="midnightblue",fontsize="10",style="solid",fontname="Helvetica"];
  Node2 [label="Task3B::action",height=0.2,width=0.4,color="black",URL="$classTask3B.html#aa803f35a028d2dc338d20d69ab592f20",tooltip="prints the line"];
  Node2 -> Node3 [dir="back",color="midnightblue",fontsize="10",style="solid",fontname="Helvetica"];
  Node3 [label="kernel",height=0.2,width=0.4,color="black",URL="$main_8cc.html#a796315624c9bcf31fd673cb62e4b9819",tooltip="kernel entry point"];
}
