digraph G
{
  bgcolor="transparent";
  edge [fontname="Helvetica",fontsize="10",labelfontname="Helvetica",labelfontsize="10"];
  node [fontname="Helvetica",fontsize="10",shape=record];
  Node1 [label="src/thread/thread.cc",height=0.2,width=0.4,color="black", fillcolor="grey75", style="filled" fontcolor="black"];
  Node1 -> Node2 [color="midnightblue",fontsize="10",style="solid",fontname="Helvetica"];
  Node2 [label="thread/thread.h",height=0.2,width=0.4,color="black",URL="$thread_8h.html"];
  Node2 -> Node3 [color="midnightblue",fontsize="10",style="solid",fontname="Helvetica"];
  Node3 [label="machine/context.h",height=0.2,width=0.4,color="black",URL="$context_8h.html"];
  Node2 -> Node4 [color="midnightblue",fontsize="10",style="solid",fontname="Helvetica"];
  Node4 [label="common/queue.h",height=0.2,width=0.4,color="black",URL="$queue_8h.html"];
  Node1 -> Node5 [color="midnightblue",fontsize="10",style="solid",fontname="Helvetica"];
  Node5 [label="object/lock.h",height=0.2,width=0.4,color="black",URL="$object_2lock_8h.html"];
  Node5 -> Node6 [color="midnightblue",fontsize="10",style="solid",fontname="Helvetica"];
  Node6 [label="locking/interruptLock.h",height=0.2,width=0.4,color="black",URL="$interruptLock_8h.html"];
  Node6 -> Node7 [color="midnightblue",fontsize="10",style="solid",fontname="Helvetica"];
  Node7 [label="locking/lock.h",height=0.2,width=0.4,color="black",URL="$locking_2lock_8h.html"];
  Node1 -> Node8 [color="midnightblue",fontsize="10",style="solid",fontname="Helvetica"];
  Node8 [label="object/scheduler.h",height=0.2,width=0.4,color="black",URL="$object_2scheduler_8h.html"];
  Node8 -> Node9 [color="midnightblue",fontsize="10",style="solid",fontname="Helvetica"];
  Node9 [label="thread/scheduler.h",height=0.2,width=0.4,color="black",URL="$thread_2scheduler_8h.html"];
  Node9 -> Node10 [color="midnightblue",fontsize="10",style="solid",fontname="Helvetica"];
  Node10 [label="thread/dispatch.h",height=0.2,width=0.4,color="black",URL="$dispatch_8h.html"];
  Node10 -> Node2 [color="midnightblue",fontsize="10",style="solid",fontname="Helvetica"];
  Node9 -> Node4 [color="midnightblue",fontsize="10",style="solid",fontname="Helvetica"];
  Node9 -> Node11 [color="midnightblue",fontsize="10",style="solid",fontname="Helvetica"];
  Node11 [label="device/watch.h",height=0.2,width=0.4,color="black",URL="$watch_8h.html"];
  Node11 -> Node12 [color="midnightblue",fontsize="10",style="solid",fontname="Helvetica"];
  Node12 [label="common/interrupthandler.h",height=0.2,width=0.4,color="black",URL="$interrupthandler_8h.html"];
  Node11 -> Node13 [color="midnightblue",fontsize="10",style="solid",fontname="Helvetica"];
  Node13 [label="machine/pit.h",height=0.2,width=0.4,color="black",URL="$pit_8h.html"];
  Node13 -> Node14 [color="midnightblue",fontsize="10",style="solid",fontname="Helvetica"];
  Node14 [label="stdint.h",height=0.2,width=0.4,color="grey75"];
  Node13 -> Node15 [color="midnightblue",fontsize="10",style="solid",fontname="Helvetica"];
  Node15 [label="machine/io_port.h",height=0.2,width=0.4,color="black",URL="$io__port_8h.html"];
  Node1 -> Node16 [color="midnightblue",fontsize="10",style="solid",fontname="Helvetica"];
  Node16 [label="object/log.h",height=0.2,width=0.4,color="black",URL="$object_2log_8h.html"];
  Node16 -> Node17 [color="midnightblue",fontsize="10",style="solid",fontname="Helvetica"];
  Node17 [label="device/log.h",height=0.2,width=0.4,color="black",URL="$device_2log_8h.html"];
  Node17 -> Node18 [color="midnightblue",fontsize="10",style="solid",fontname="Helvetica"];
  Node18 [label="common/o_stream.h",height=0.2,width=0.4,color="black",URL="$o__stream_8h.html"];
  Node18 -> Node19 [color="midnightblue",fontsize="10",style="solid",fontname="Helvetica"];
  Node19 [label="common/strbuf.h",height=0.2,width=0.4,color="black",URL="$strbuf_8h.html"];
  Node19 -> Node20 [color="midnightblue",fontsize="10",style="solid",fontname="Helvetica"];
  Node20 [label="config.h",height=0.2,width=0.4,color="black",URL="$config_8h.html",tooltip="defines for different configurations of OOStuBS"];
  Node17 -> Node21 [color="midnightblue",fontsize="10",style="solid",fontname="Helvetica"];
  Node21 [label="machine/serial.h",height=0.2,width=0.4,color="black",URL="$serial_8h.html"];
  Node21 -> Node15 [color="midnightblue",fontsize="10",style="solid",fontname="Helvetica"];
}
