digraph G
{
  bgcolor="transparent";
  edge [fontname="Helvetica",fontsize="10",labelfontname="Helvetica",labelfontsize="10"];
  node [fontname="Helvetica",fontsize="10",shape=record];
  Node1 [label="src/user/analyse.cc",height=0.2,width=0.4,color="black", fillcolor="grey75", style="filled" fontcolor="black"];
  Node1 -> Node2 [color="midnightblue",fontsize="10",style="solid",fontname="Helvetica"];
  Node2 [label="user/analyse.h",height=0.2,width=0.4,color="black",URL="$analyse_8h.html"];
  Node1 -> Node3 [color="midnightblue",fontsize="10",style="solid",fontname="Helvetica"];
  Node3 [label="common/o_stream.h",height=0.2,width=0.4,color="black",URL="$o__stream_8h.html"];
  Node3 -> Node4 [color="midnightblue",fontsize="10",style="solid",fontname="Helvetica"];
  Node4 [label="common/strbuf.h",height=0.2,width=0.4,color="black",URL="$strbuf_8h.html"];
  Node4 -> Node5 [color="midnightblue",fontsize="10",style="solid",fontname="Helvetica"];
  Node5 [label="config.h",height=0.2,width=0.4,color="black",URL="$config_8h.html",tooltip="defines for different configurations of OOStuBS"];
  Node1 -> Node6 [color="midnightblue",fontsize="10",style="solid",fontname="Helvetica"];
  Node6 [label="object/kout.h",height=0.2,width=0.4,color="black",URL="$kout_8h.html",tooltip="help include file for use of global declared variable kout, declared in main.cc"];
  Node6 -> Node7 [color="midnightblue",fontsize="10",style="solid",fontname="Helvetica"];
  Node7 [label="device/cgastr.h",height=0.2,width=0.4,color="black",URL="$cgastr_8h.html"];
  Node7 -> Node3 [color="midnightblue",fontsize="10",style="solid",fontname="Helvetica"];
  Node7 -> Node8 [color="midnightblue",fontsize="10",style="solid",fontname="Helvetica"];
  Node8 [label="machine/cgascr.h",height=0.2,width=0.4,color="black",URL="$cgascr_8h.html"];
}
