digraph G
{
  bgcolor="transparent";
  edge [fontname="Helvetica",fontsize="10",labelfontname="Helvetica",labelfontsize="10"];
  node [fontname="Helvetica",fontsize="10",shape=record];
  rankdir="LR";
  Node1 [label="printFormatted",height=0.2,width=0.4,color="black", fillcolor="grey75", style="filled" fontcolor="black"];
  Node1 -> Node2 [color="midnightblue",fontsize="10",style="solid",fontname="Helvetica"];
  Node2 [label="hex",height=0.2,width=0.4,color="black",URL="$o__stream_8h.html#ac9bf4a3a6b7a2f0105d73ce270f5e69d",tooltip="switch basis of o_stream to hexadecimal"];
}
