digraph G
{
  bgcolor="transparent";
  edge [fontname="Helvetica",fontsize="10",labelfontname="Helvetica",labelfontsize="10"];
  node [fontname="Helvetica",fontsize="10",shape=record];
  rankdir="LR";
  Node1 [label="Task3B::action",height=0.2,width=0.4,color="black", fillcolor="grey75", style="filled" fontcolor="black"];
  Node1 -> Node2 [color="midnightblue",fontsize="10",style="solid",fontname="Helvetica"];
  Node2 [label="doTask3BAction",height=0.2,width=0.4,color="black",URL="$task3B_8cc.html#a5874bf2c7fd779b0760c4d5f16bb2d08"];
  Node2 -> Node3 [color="midnightblue",fontsize="10",style="solid",fontname="Helvetica"];
  Node3 [label="printStack",height=0.2,width=0.4,color="black",URL="$task3B_8cc.html#a1140e1f1ebb85d5c7103af6e0b522c22"];
  Node3 -> Node4 [color="midnightblue",fontsize="10",style="solid",fontname="Helvetica"];
  Node4 [label="analyseProcedureStack",height=0.2,width=0.4,color="black",URL="$analyse_8h.html#a5358f2b5bca3423527c936ebe5a3d0ed",tooltip="analyse function for procedure stackThe functions prints the first 60 32 bit words of the stack..."];
  Node4 -> Node5 [color="midnightblue",fontsize="10",style="solid",fontname="Helvetica"];
  Node5 [label="endl",height=0.2,width=0.4,color="black",URL="$o__stream_8h.html#a28de23f7cab39bdb0f6a5dc3801b6c6d",tooltip="print buffer after adding a newline"];
  Node5 -> Node6 [color="midnightblue",fontsize="10",style="solid",fontname="Helvetica"];
  Node6 [label="Stringbuffer::flush",height=0.2,width=0.4,color="black",URL="$classStringbuffer.html#abfb79178e3d7520f99aec80f996abaac",tooltip="flush the content of the buffer to the screen"];
  Node4 -> Node7 [color="midnightblue",fontsize="10",style="solid",fontname="Helvetica"];
  Node7 [label="printFormatted",height=0.2,width=0.4,color="black",URL="$analyse_8cc.html#aeaf44bcb41af369300bf80a3bb46dd31"];
  Node7 -> Node8 [color="midnightblue",fontsize="10",style="solid",fontname="Helvetica"];
  Node8 [label="hex",height=0.2,width=0.4,color="black",URL="$o__stream_8h.html#ac9bf4a3a6b7a2f0105d73ce270f5e69d",tooltip="switch basis of o_stream to hexadecimal"];
  Node4 -> Node9 [color="midnightblue",fontsize="10",style="solid",fontname="Helvetica"];
  Node9 [label="CGA_Stream::flush",height=0.2,width=0.4,color="black",URL="$classCGA__Stream.html#a73572f5377a28f09ee9dc3af7b5a65b9",tooltip="flush the content of the internal buffer"];
  Node9 -> Node10 [color="midnightblue",fontsize="10",style="solid",fontname="Helvetica"];
  Node10 [label="CGA_Screen::print",height=0.2,width=0.4,color="black",URL="$classCGA__Screen.html#a6c295831093cab87c3944e39160965b9",tooltip="print a string to the current position"];
  Node10 -> Node11 [color="midnightblue",fontsize="10",style="solid",fontname="Helvetica"];
  Node11 [label="CGA_Screen::getpos",height=0.2,width=0.4,color="black",URL="$classCGA__Screen.html#a6f47426c0cf0662b6835d64e08cf929e",tooltip="get the cursor position"];
  Node11 -> Node12 [color="midnightblue",fontsize="10",style="solid",fontname="Helvetica"];
  Node12 [label="IO_Port::outb",height=0.2,width=0.4,color="black",URL="$classIO__Port.html#a63edbd1cd64f3188c448e32408c2681c",tooltip="write a byte value to the associated port."];
  Node11 -> Node13 [color="midnightblue",fontsize="10",style="solid",fontname="Helvetica"];
  Node13 [label="IO_Port::inb",height=0.2,width=0.4,color="black",URL="$classIO__Port.html#a77b7915e167487c31150a4c4b9a15496",tooltip="read a byte value from the associated port."];
  Node10 -> Node14 [color="midnightblue",fontsize="10",style="solid",fontname="Helvetica"];
  Node14 [label="CGA_Screen::scrollup",height=0.2,width=0.4,color="black",URL="$classCGA__Screen.html#a3808a301813e3e1b6368ab75a94ea652",tooltip="scroll the display one line upwards"];
  Node14 -> Node11 [color="midnightblue",fontsize="10",style="solid",fontname="Helvetica"];
  Node10 -> Node15 [color="midnightblue",fontsize="10",style="solid",fontname="Helvetica"];
  Node15 [label="CGA_Screen::setpos",height=0.2,width=0.4,color="black",URL="$classCGA__Screen.html#a346b7ccc05356f76e738a76a24510e33",tooltip="set the cursor position"];
  Node15 -> Node14 [color="midnightblue",fontsize="10",style="solid",fontname="Helvetica"];
  Node15 -> Node12 [color="midnightblue",fontsize="10",style="solid",fontname="Helvetica"];
  Node10 -> Node16 [color="midnightblue",fontsize="10",style="solid",fontname="Helvetica"];
  Node16 [label="CGA_Screen::show",height=0.2,width=0.4,color="black",URL="$classCGA__Screen.html#aae28fe185b84e30ac13d14c9137de545",tooltip="print a character to a specific position"];
  Node16 -> Node17 [color="midnightblue",fontsize="10",style="solid",fontname="Helvetica"];
  Node17 [label="CGA_Screen::get_reg_num",height=0.2,width=0.4,color="black",URL="$classCGA__Screen.html#a82e9764644aa96323a6d03947eda01b1"];
  Node4 -> Node18 [color="midnightblue",fontsize="10",style="solid",fontname="Helvetica"];
  Node18 [label="dec",height=0.2,width=0.4,color="black",URL="$o__stream_8h.html#a143762d59413d6d7cae38fb25104c5c4",tooltip="switch basis of o_stream to decimal"];
  Node3 -> Node19 [color="midnightblue",fontsize="10",style="solid",fontname="Helvetica"];
  Node19 [label="Keyboard_Controller::key_hit",height=0.2,width=0.4,color="black",URL="$classKeyboard__Controller.html#a78cf6859d88097a0f2b6945fc86c1d21",tooltip="get the last pressed key"];
  Node19 -> Node13 [color="midnightblue",fontsize="10",style="solid",fontname="Helvetica"];
  Node19 -> Node20 [color="midnightblue",fontsize="10",style="solid",fontname="Helvetica"];
  Node20 [label="Keyboard_Controller::key_decoded",height=0.2,width=0.4,color="black",URL="$classKeyboard__Controller.html#aa517065c0ed4059b477dfb481539b1b2",tooltip="interpret the reveived scancode and modifier bits"];
  Node20 -> Node21 [color="midnightblue",fontsize="10",style="solid",fontname="Helvetica"];
  Node21 [label="Key::shift",height=0.2,width=0.4,color="black",URL="$classKey.html#a62e735f4121d8984d994a508bdd6a74b"];
  Node21 -> Node22 [color="midnightblue",fontsize="10",style="solid",fontname="Helvetica"];
  Node22 [label="Key::shift",height=0.2,width=0.4,color="black",URL="$classKey.html#a19b48c665bdda438c55de7399eb4a631"];
  Node20 -> Node23 [color="midnightblue",fontsize="10",style="solid",fontname="Helvetica"];
  Node23 [label="Key::alt_right",height=0.2,width=0.4,color="black",URL="$classKey.html#af4fa809960860523573abd695e3f8fbe"];
  Node23 -> Node24 [color="midnightblue",fontsize="10",style="solid",fontname="Helvetica"];
  Node24 [label="Key::alt_right",height=0.2,width=0.4,color="black",URL="$classKey.html#af12fb21a12c35fb89f6ff43db96759ba"];
  Node20 -> Node25 [color="midnightblue",fontsize="10",style="solid",fontname="Helvetica"];
  Node25 [label="Key::alt_left",height=0.2,width=0.4,color="black",URL="$classKey.html#ab1199ecfd588b567053543b6715ba19a"];
  Node25 -> Node26 [color="midnightblue",fontsize="10",style="solid",fontname="Helvetica"];
  Node26 [label="Key::alt_left",height=0.2,width=0.4,color="black",URL="$classKey.html#a8d41de9c5f54ed629bfd7a7f4742fbbc"];
  Node20 -> Node27 [color="midnightblue",fontsize="10",style="solid",fontname="Helvetica"];
  Node27 [label="Key::ctrl_right",height=0.2,width=0.4,color="black",URL="$classKey.html#a90ea541bc6d1286a517eaccd700c4ba0"];
  Node27 -> Node28 [color="midnightblue",fontsize="10",style="solid",fontname="Helvetica"];
  Node28 [label="Key::ctrl_right",height=0.2,width=0.4,color="black",URL="$classKey.html#a8c4d5f648534aa271a9582d53382e54f"];
  Node20 -> Node29 [color="midnightblue",fontsize="10",style="solid",fontname="Helvetica"];
  Node29 [label="Key::ctrl_left",height=0.2,width=0.4,color="black",URL="$classKey.html#af1c7ef33119f0c10909a2de246de7854"];
  Node29 -> Node30 [color="midnightblue",fontsize="10",style="solid",fontname="Helvetica"];
  Node30 [label="Key::ctrl_left",height=0.2,width=0.4,color="black",URL="$classKey.html#aaa434afc90ecb93a28a0e5e6e8c58e87"];
  Node20 -> Node31 [color="midnightblue",fontsize="10",style="solid",fontname="Helvetica"];
  Node31 [label="Key::caps_lock",height=0.2,width=0.4,color="black",URL="$classKey.html#a45fb60e270f30b9f23e28259e851b14a"];
  Node31 -> Node32 [color="midnightblue",fontsize="10",style="solid",fontname="Helvetica"];
  Node32 [label="Key::caps_lock",height=0.2,width=0.4,color="black",URL="$classKey.html#a8a4da1819e66bb141c4dea2934845fab"];
  Node20 -> Node33 [color="midnightblue",fontsize="10",style="solid",fontname="Helvetica"];
  Node33 [label="Keyboard_Controller::set_led",height=0.2,width=0.4,color="black",URL="$classKeyboard__Controller.html#a36dfc2c73c4031c8662e37159238d5b0",tooltip="switch the specified LED of the keyboard on or off."];
  Node33 -> Node12 [color="midnightblue",fontsize="10",style="solid",fontname="Helvetica"];
  Node33 -> Node13 [color="midnightblue",fontsize="10",style="solid",fontname="Helvetica"];
  Node20 -> Node34 [color="midnightblue",fontsize="10",style="solid",fontname="Helvetica"];
  Node34 [label="Key::scroll_lock",height=0.2,width=0.4,color="black",URL="$classKey.html#af3d96c346d2e6088cafbc94fe7c783ef"];
  Node34 -> Node35 [color="midnightblue",fontsize="10",style="solid",fontname="Helvetica"];
  Node35 [label="Key::scroll_lock",height=0.2,width=0.4,color="black",URL="$classKey.html#a5f85f2e72598824e028162ec53890260"];
  Node20 -> Node36 [color="midnightblue",fontsize="10",style="solid",fontname="Helvetica"];
  Node36 [label="Keyboard_Controller::get_ascii_code",height=0.2,width=0.4,color="black",URL="$classKeyboard__Controller.html#ac2b33ffe1e2794c81249861aa792513a",tooltip="convert the received scancode and modfier bits to an ascii char"];
  Node36 -> Node37 [color="midnightblue",fontsize="10",style="solid",fontname="Helvetica"];
  Node37 [label="Key::ascii",height=0.2,width=0.4,color="black",URL="$classKey.html#abb65ed9de2b4a8c24f557416b484df34",tooltip="set ascii value"];
  Node36 -> Node38 [color="midnightblue",fontsize="10",style="solid",fontname="Helvetica"];
  Node38 [label="Key::scancode",height=0.2,width=0.4,color="black",URL="$classKey.html#ae67075af1a5c0a7f585e8e61fc8515f8",tooltip="set scancode value"];
  Node36 -> Node39 [color="midnightblue",fontsize="10",style="solid",fontname="Helvetica"];
  Node39 [label="Key::num_lock",height=0.2,width=0.4,color="black",URL="$classKey.html#a4a8da77b0cb57bf89bffa3903c2f79ce"];
  Node39 -> Node40 [color="midnightblue",fontsize="10",style="solid",fontname="Helvetica"];
  Node40 [label="Key::num_lock",height=0.2,width=0.4,color="black",URL="$classKey.html#aab1b4f9446a6db6fc4a6a1f7824d51b5"];
  Node36 -> Node23 [color="midnightblue",fontsize="10",style="solid",fontname="Helvetica"];
  Node36 -> Node21 [color="midnightblue",fontsize="10",style="solid",fontname="Helvetica"];
  Node36 -> Node31 [color="midnightblue",fontsize="10",style="solid",fontname="Helvetica"];
  Node20 -> Node39 [color="midnightblue",fontsize="10",style="solid",fontname="Helvetica"];
  Node3 -> Node41 [color="midnightblue",fontsize="10",style="solid",fontname="Helvetica"];
  Node41 [label="Key::valid",height=0.2,width=0.4,color="black",URL="$classKey.html#a4292f24b142a697e610fb7780a0dc9d5",tooltip="test for validity."];
  Node3 -> Node37 [color="midnightblue",fontsize="10",style="solid",fontname="Helvetica"];
  Node2 -> Node42 [color="midnightblue",fontsize="10",style="solid",fontname="Helvetica"];
  Node42 [label="fib",height=0.2,width=0.4,color="black",URL="$task3B_8cc.html#ad1b3bc944aac0dbdd041cc180ff8c37a"];
  Node42 -> Node3 [color="midnightblue",fontsize="10",style="solid",fontname="Helvetica"];
  Node42 -> Node43 [color="midnightblue",fontsize="10",style="solid",fontname="Helvetica"];
  Node43 [label="runFib",height=0.2,width=0.4,color="black",URL="$task3B_8cc.html#a4205b075c53452d0a4cb9966fe2bf855"];
  Node43 -> Node3 [color="midnightblue",fontsize="10",style="solid",fontname="Helvetica"];
  Node2 -> Node5 [color="midnightblue",fontsize="10",style="solid",fontname="Helvetica"];
}
