digraph G
{
  bgcolor="transparent";
  edge [fontname="Helvetica",fontsize="10",labelfontname="Helvetica",labelfontsize="10"];
  node [fontname="Helvetica",fontsize="10",shape=record];
  rankdir="LR";
  Node1 [label="CGA_Screen::scrollup",height=0.2,width=0.4,color="black", fillcolor="grey75", style="filled" fontcolor="black"];
  Node1 -> Node2 [dir="back",color="midnightblue",fontsize="10",style="solid",fontname="Helvetica"];
  Node2 [label="CGA_Screen::setpos",height=0.2,width=0.4,color="black",URL="$classCGA__Screen.html#a346b7ccc05356f76e738a76a24510e33",tooltip="set the cursor position"];
  Node2 -> Node3 [dir="back",color="midnightblue",fontsize="10",style="solid",fontname="Helvetica"];
  Node3 [label="Keyboard::trigger",height=0.2,width=0.4,color="black",URL="$classKeyboard.html#a0d0359a4df20db7eb38dd769e2322353",tooltip="handle keyboard interrupt"];
  Node3 -> Node4 [dir="back",color="midnightblue",fontsize="10",style="solid",fontname="Helvetica"];
  Node4 [label="InterruptStorage::handle",height=0.2,width=0.4,color="black",URL="$classInterruptStorage.html#a5ca87e7425e996fb19401e8e8ae2bbe6",tooltip="execute the handler of a specific interrupt"];
  Node4 -> Node5 [dir="back",color="midnightblue",fontsize="10",style="solid",fontname="Helvetica"];
  Node5 [label="exception",height=0.2,width=0.4,color="black",URL="$exceptions_8cc.html#a17ac45e3213989a19bb1472093ca30e6",tooltip="Entry point for exceptions."];
  Node2 -> Node6 [dir="back",color="midnightblue",fontsize="10",style="solid",fontname="Helvetica"];
  Node6 [label="CGA_Screen::CGA_Screen",height=0.2,width=0.4,color="black",URL="$classCGA__Screen.html#a4415c1855a6afdc5cd3116e5fa054252",tooltip="Constructor."];
  Node2 -> Node7 [dir="back",color="midnightblue",fontsize="10",style="solid",fontname="Helvetica"];
  Node7 [label="CGA_Screen::print",height=0.2,width=0.4,color="black",URL="$classCGA__Screen.html#a6c295831093cab87c3944e39160965b9",tooltip="print a string to the current position"];
  Node7 -> Node8 [dir="back",color="midnightblue",fontsize="10",style="solid",fontname="Helvetica"];
  Node8 [label="CGA_Stream::flush",height=0.2,width=0.4,color="black",URL="$classCGA__Stream.html#a73572f5377a28f09ee9dc3af7b5a65b9",tooltip="flush the content of the internal buffer"];
  Node8 -> Node3 [dir="back",color="midnightblue",fontsize="10",style="solid",fontname="Helvetica"];
  Node8 -> Node9 [dir="back",color="midnightblue",fontsize="10",style="solid",fontname="Helvetica"];
  Node9 [label="printException",height=0.2,width=0.4,color="black",URL="$exceptions_8cc.html#aa9be12416ab5fcc6ced0ea49ff7825de"];
  Node9 -> Node5 [dir="back",color="midnightblue",fontsize="10",style="solid",fontname="Helvetica"];
  Node8 -> Node10 [dir="back",color="midnightblue",fontsize="10",style="solid",fontname="Helvetica"];
  Node10 [label="analyseProcedureStack",height=0.2,width=0.4,color="black",URL="$analyse_8cc.html#adab0ef21ad15eeca2d4b96b98b59b356",tooltip="analyse function for procedure stackThe functions prints the first 60 32 bit words of the stack..."];
  Node10 -> Node11 [dir="back",color="midnightblue",fontsize="10",style="solid",fontname="Helvetica"];
  Node11 [label="printStack",height=0.2,width=0.4,color="black",URL="$task3B_8cc.html#a1140e1f1ebb85d5c7103af6e0b522c22"];
  Node11 -> Node12 [dir="back",color="midnightblue",fontsize="10",style="solid",fontname="Helvetica"];
  Node12 [label="runFib",height=0.2,width=0.4,color="black",URL="$task3B_8cc.html#a4205b075c53452d0a4cb9966fe2bf855"];
  Node12 -> Node13 [dir="back",color="midnightblue",fontsize="10",style="solid",fontname="Helvetica"];
  Node13 [label="fib",height=0.2,width=0.4,color="black",URL="$task3B_8cc.html#ad1b3bc944aac0dbdd041cc180ff8c37a"];
  Node13 -> Node14 [dir="back",color="midnightblue",fontsize="10",style="solid",fontname="Helvetica"];
  Node14 [label="doTask3BAction",height=0.2,width=0.4,color="black",URL="$task3B_8cc.html#a5874bf2c7fd779b0760c4d5f16bb2d08"];
  Node14 -> Node15 [dir="back",color="midnightblue",fontsize="10",style="solid",fontname="Helvetica"];
  Node15 [label="Task3B::action",height=0.2,width=0.4,color="black",URL="$classTask3B.html#aa803f35a028d2dc338d20d69ab592f20",tooltip="prints the line"];
  Node11 -> Node13 [dir="back",color="midnightblue",fontsize="10",style="solid",fontname="Helvetica"];
  Node11 -> Node14 [dir="back",color="midnightblue",fontsize="10",style="solid",fontname="Helvetica"];
  Node8 -> Node16 [dir="back",color="midnightblue",fontsize="10",style="solid",fontname="Helvetica"];
  Node16 [label="Task1::testKout",height=0.2,width=0.4,color="black",URL="$classTask1.html#a48ca608ac9cdc03ab6614a4f61e2448e",tooltip="test the functionality of the Kout object"];
  Node16 -> Node17 [dir="back",color="midnightblue",fontsize="10",style="solid",fontname="Helvetica"];
  Node17 [label="Task1::action",height=0.2,width=0.4,color="black",URL="$classTask1.html#a0d4029a13591e70af436c0ead066ea5c",tooltip="parse and print multiboot information"];
  Node8 -> Node18 [dir="back",color="midnightblue",fontsize="10",style="solid",fontname="Helvetica"];
  Node18 [label="Task1::testKeyboard",height=0.2,width=0.4,color="black",URL="$classTask1.html#a587ce3fad20f9ec4ec88beefd08db49e",tooltip="test the functionality of the Keyboard_Controller object"];
  Node18 -> Node17 [dir="back",color="midnightblue",fontsize="10",style="solid",fontname="Helvetica"];
  Node8 -> Node19 [dir="back",color="midnightblue",fontsize="10",style="solid",fontname="Helvetica"];
  Node19 [label="Task2::action",height=0.2,width=0.4,color="black",URL="$classTask2.html#aa5de17846032b02d6d0819cdc78b1b3e",tooltip="prints the line"];
  Node8 -> Node20 [dir="back",color="midnightblue",fontsize="10",style="solid",fontname="Helvetica"];
  Node20 [label="Task4::RotCursor::action",height=0.2,width=0.4,color="black",URL="$classTask4_1_1RotCursor.html#a33e3fee3981896223823f4b396339f40",tooltip="start outputting the symbol"];
  Node8 -> Node21 [dir="back",color="midnightblue",fontsize="10",style="solid",fontname="Helvetica"];
  Node21 [label="Task4::Counter::action",height=0.2,width=0.4,color="black",URL="$classTask4_1_1Counter.html#a93c77e391d4d89cf0c34c47b9521d464",tooltip="start outputting and incrementing the counter value"];
  Node2 -> Node9 [dir="back",color="midnightblue",fontsize="10",style="solid",fontname="Helvetica"];
  Node2 -> Node16 [dir="back",color="midnightblue",fontsize="10",style="solid",fontname="Helvetica"];
  Node2 -> Node18 [dir="back",color="midnightblue",fontsize="10",style="solid",fontname="Helvetica"];
  Node2 -> Node17 [dir="back",color="midnightblue",fontsize="10",style="solid",fontname="Helvetica"];
  Node2 -> Node22 [dir="back",color="midnightblue",fontsize="10",style="solid",fontname="Helvetica"];
  Node22 [label="Task2::Task2",height=0.2,width=0.4,color="black",URL="$classTask2.html#a4adb42b6119375dfec56808c158dd7dc",tooltip="Default constructor."];
  Node2 -> Node19 [dir="back",color="midnightblue",fontsize="10",style="solid",fontname="Helvetica"];
  Node2 -> Node23 [dir="back",color="midnightblue",fontsize="10",style="solid",fontname="Helvetica"];
  Node23 [label="Task3A::Task3A",height=0.2,width=0.4,color="black",URL="$classTask3A.html#a86233712775d9b45fe3d8a5eae09334d",tooltip="Default constructor."];
  Node2 -> Node24 [dir="back",color="midnightblue",fontsize="10",style="solid",fontname="Helvetica"];
  Node24 [label="Task3B::Task3B",height=0.2,width=0.4,color="black",URL="$classTask3B.html#a7ec400d4732dfb10f86b72a9b767f36e",tooltip="Default constructor."];
  Node2 -> Node20 [dir="back",color="midnightblue",fontsize="10",style="solid",fontname="Helvetica"];
  Node2 -> Node21 [dir="back",color="midnightblue",fontsize="10",style="solid",fontname="Helvetica"];
  Node2 -> Node25 [dir="back",color="midnightblue",fontsize="10",style="solid",fontname="Helvetica"];
  Node25 [label="Task4::action",height=0.2,width=0.4,color="black",URL="$classTask4.html#a2a7d07836599ad51be274201cf6c2027",tooltip="start operation"];
  Node1 -> Node7 [dir="back",color="midnightblue",fontsize="10",style="solid",fontname="Helvetica"];
}
