digraph G
{
  bgcolor="transparent";
  edge [fontname="Helvetica",fontsize="10",labelfontname="Helvetica",labelfontsize="10"];
  node [fontname="Helvetica",fontsize="10",shape=record];
  rankdir="LR";
  Node1 [label="printException",height=0.2,width=0.4,color="black", fillcolor="grey75", style="filled" fontcolor="black"];
  Node1 -> Node2 [color="midnightblue",fontsize="10",style="solid",fontname="Helvetica"];
  Node2 [label="CGA_Screen::clear",height=0.2,width=0.4,color="black",URL="$classCGA__Screen.html#a622bc3a2822e3006579167343d639353",tooltip="clear the screen"];
  Node1 -> Node3 [color="midnightblue",fontsize="10",style="solid",fontname="Helvetica"];
  Node3 [label="CGA_Screen::setpos",height=0.2,width=0.4,color="black",URL="$classCGA__Screen.html#a346b7ccc05356f76e738a76a24510e33",tooltip="set the cursor position"];
  Node3 -> Node4 [color="midnightblue",fontsize="10",style="solid",fontname="Helvetica"];
  Node4 [label="CGA_Screen::scrollup",height=0.2,width=0.4,color="black",URL="$classCGA__Screen.html#a3808a301813e3e1b6368ab75a94ea652",tooltip="scroll the display one line upwards"];
  Node4 -> Node5 [color="midnightblue",fontsize="10",style="solid",fontname="Helvetica"];
  Node5 [label="CGA_Screen::getpos",height=0.2,width=0.4,color="black",URL="$classCGA__Screen.html#a6f47426c0cf0662b6835d64e08cf929e",tooltip="get the cursor position"];
  Node5 -> Node6 [color="midnightblue",fontsize="10",style="solid",fontname="Helvetica"];
  Node6 [label="IO_Port::outb",height=0.2,width=0.4,color="black",URL="$classIO__Port.html#a63edbd1cd64f3188c448e32408c2681c",tooltip="write a byte value to the associated port."];
  Node5 -> Node7 [color="midnightblue",fontsize="10",style="solid",fontname="Helvetica"];
  Node7 [label="IO_Port::inb",height=0.2,width=0.4,color="black",URL="$classIO__Port.html#a77b7915e167487c31150a4c4b9a15496",tooltip="read a byte value from the associated port."];
  Node3 -> Node6 [color="midnightblue",fontsize="10",style="solid",fontname="Helvetica"];
  Node1 -> Node8 [color="midnightblue",fontsize="10",style="solid",fontname="Helvetica"];
  Node8 [label="CGA_Stream::flush",height=0.2,width=0.4,color="black",URL="$classCGA__Stream.html#a73572f5377a28f09ee9dc3af7b5a65b9",tooltip="flush the content of the internal buffer"];
  Node8 -> Node9 [color="midnightblue",fontsize="10",style="solid",fontname="Helvetica"];
  Node9 [label="CGA_Screen::print",height=0.2,width=0.4,color="black",URL="$classCGA__Screen.html#a6c295831093cab87c3944e39160965b9",tooltip="print a string to the current position"];
  Node9 -> Node5 [color="midnightblue",fontsize="10",style="solid",fontname="Helvetica"];
  Node9 -> Node4 [color="midnightblue",fontsize="10",style="solid",fontname="Helvetica"];
  Node9 -> Node3 [color="midnightblue",fontsize="10",style="solid",fontname="Helvetica"];
  Node9 -> Node10 [color="midnightblue",fontsize="10",style="solid",fontname="Helvetica"];
  Node10 [label="CGA_Screen::show",height=0.2,width=0.4,color="black",URL="$classCGA__Screen.html#aae28fe185b84e30ac13d14c9137de545",tooltip="print a character to a specific position"];
  Node10 -> Node11 [color="midnightblue",fontsize="10",style="solid",fontname="Helvetica"];
  Node11 [label="CGA_Screen::get_reg_num",height=0.2,width=0.4,color="black",URL="$classCGA__Screen.html#a82e9764644aa96323a6d03947eda01b1"];
  Node1 -> Node12 [color="midnightblue",fontsize="10",style="solid",fontname="Helvetica"];
  Node12 [label="endl",height=0.2,width=0.4,color="black",URL="$o__stream_8h.html#a28de23f7cab39bdb0f6a5dc3801b6c6d",tooltip="print buffer after adding a newline"];
  Node12 -> Node13 [color="midnightblue",fontsize="10",style="solid",fontname="Helvetica"];
  Node13 [label="Stringbuffer::flush",height=0.2,width=0.4,color="black",URL="$classStringbuffer.html#abfb79178e3d7520f99aec80f996abaac",tooltip="flush the content of the buffer to the screen"];
  Node1 -> Node14 [color="midnightblue",fontsize="10",style="solid",fontname="Helvetica"];
  Node14 [label="hex",height=0.2,width=0.4,color="black",URL="$o__stream_8h.html#ac9bf4a3a6b7a2f0105d73ce270f5e69d",tooltip="switch basis of o_stream to hexadecimal"];
  Node1 -> Node15 [color="midnightblue",fontsize="10",style="solid",fontname="Helvetica"];
  Node15 [label="dec",height=0.2,width=0.4,color="black",URL="$o__stream_8h.html#a143762d59413d6d7cae38fb25104c5c4",tooltip="switch basis of o_stream to decimal"];
  Node1 -> Node16 [color="midnightblue",fontsize="10",style="solid",fontname="Helvetica"];
  Node16 [label="bin",height=0.2,width=0.4,color="black",URL="$o__stream_8h.html#a53efad1d7227486b7c2208929d9b4390",tooltip="switch basis of o_stream to binary"];
  Node1 -> Node17 [color="midnightblue",fontsize="10",style="solid",fontname="Helvetica"];
  Node17 [label="CPU::disable_int",height=0.2,width=0.4,color="black",URL="$classCPU.html#ac6fb3ac4a286728ae0deb78628b98b2d",tooltip="globally dissable interrupts and return previous state"];
  Node1 -> Node18 [color="midnightblue",fontsize="10",style="solid",fontname="Helvetica"];
  Node18 [label="CPU::halt",height=0.2,width=0.4,color="black",URL="$classCPU.html#a189729f4ca240ff52004a34b9057d448",tooltip="halt the cpu"];
}
