digraph G
{
  bgcolor="transparent";
  edge [fontname="Helvetica",fontsize="10",labelfontname="Helvetica",labelfontsize="10"];
  node [fontname="Helvetica",fontsize="10",shape=record];
  Node1 [label="include/object/imanager.h",height=0.2,width=0.4,color="black", fillcolor="grey75", style="filled" fontcolor="black"];
  Node1 -> Node2 [color="midnightblue",fontsize="10",style="solid",fontname="Helvetica"];
  Node2 [label="device/interruptmanager.h",height=0.2,width=0.4,color="black",URL="$interruptmanager_8h.html"];
  Node2 -> Node3 [color="midnightblue",fontsize="10",style="solid",fontname="Helvetica"];
  Node3 [label="common/interruptstorage.h",height=0.2,width=0.4,color="black",URL="$interruptstorage_8h.html"];
  Node3 -> Node4 [color="midnightblue",fontsize="10",style="solid",fontname="Helvetica"];
  Node4 [label="config.h",height=0.2,width=0.4,color="black",URL="$config_8h.html",tooltip="defines for different configurations of OOStuBS"];
  Node3 -> Node5 [color="midnightblue",fontsize="10",style="solid",fontname="Helvetica"];
  Node5 [label="common/panic.h",height=0.2,width=0.4,color="black",URL="$panic_8h.html"];
  Node5 -> Node6 [color="midnightblue",fontsize="10",style="solid",fontname="Helvetica"];
  Node6 [label="common/interrupthandler.h",height=0.2,width=0.4,color="black",URL="$interrupthandler_8h.html"];
  Node2 -> Node7 [color="midnightblue",fontsize="10",style="solid",fontname="Helvetica"];
  Node7 [label="machine/pic.h",height=0.2,width=0.4,color="black",URL="$pic_8h.html"];
  Node7 -> Node8 [color="midnightblue",fontsize="10",style="solid",fontname="Helvetica"];
  Node8 [label="machine/io_port.h",height=0.2,width=0.4,color="black",URL="$io__port_8h.html"];
}
