digraph G
{
  bgcolor="transparent";
  edge [fontname="Helvetica",fontsize="10",labelfontname="Helvetica",labelfontsize="10"];
  node [fontname="Helvetica",fontsize="10",shape=record];
  rankdir="LR";
  Node1 [label="bin",height=0.2,width=0.4,color="black", fillcolor="grey75", style="filled" fontcolor="black"];
  Node1 -> Node2 [dir="back",color="midnightblue",fontsize="10",style="solid",fontname="Helvetica"];
  Node2 [label="printException",height=0.2,width=0.4,color="black",URL="$exceptions_8cc.html#aa9be12416ab5fcc6ced0ea49ff7825de"];
  Node2 -> Node3 [dir="back",color="midnightblue",fontsize="10",style="solid",fontname="Helvetica"];
  Node3 [label="exception",height=0.2,width=0.4,color="black",URL="$exceptions_8cc.html#a17ac45e3213989a19bb1472093ca30e6",tooltip="Entry point for exceptions."];
  Node1 -> Node4 [dir="back",color="midnightblue",fontsize="10",style="solid",fontname="Helvetica"];
  Node4 [label="Task1::parseAndPrint",height=0.2,width=0.4,color="black",URL="$classTask1.html#af4e3f3b3085e350a5e939da4dba2738d",tooltip="parse and print the multiboot information"];
  Node4 -> Node5 [dir="back",color="midnightblue",fontsize="10",style="solid",fontname="Helvetica"];
  Node5 [label="Task1::action",height=0.2,width=0.4,color="black",URL="$classTask1.html#a0d4029a13591e70af436c0ead066ea5c",tooltip="parse and print multiboot information"];
  Node5 -> Node6 [dir="back",color="midnightblue",fontsize="10",style="solid",fontname="Helvetica"];
  Node6 [label="kernel",height=0.2,width=0.4,color="black",URL="$main_8cc.html#a796315624c9bcf31fd673cb62e4b9819",tooltip="kernel entry point"];
}
